;; -*- coding: utf-8 -*-
;; 파일이름: 001sjh.txt
;; 파일내용: 수정 현황

;; 본 문서는 아버지께서 돌아가신날을 기준시점으로 기록됨.
;; 원본기록에 의하면 아버지께선 양력으로 2016년 11월 4일에 마지막 수정을 하셨다.
;; 그날 수정된 송아지가 2017년 8월 17일에 무사히 태어났다. 수송아지.
;; 고생하셨습니다.. 아버지.. 그리고 고맙습니다 감사합니다...!!!

;; 아버지 돌아가신 날(기일):
;; 부검에서 사망확정된 날(발견한 날)은
;;  양력으로 2016년 11월 5일. 하지만 집안 어르신들은 부검으로 확인된 사망일자보다 
;;  하루 전날 돌아가신걸로 추정하고 그걸로 기일로 잡자고 하셨음.
;;  하여 집안어르신들 뜻에 따라 아버지께서 돌아가신날은 [2016년 11월 4일 (양력)] 으로 정해졌음. 
;;  이를 음력으로 환산하면 10월 5일이며, 최종 확정 아버지 __기일__은 ***음력 10월 5일***임.
;;  (또한 어머니께서도 음력 10월 5일을 말로써 인정하셨음 [확인: 2019년 10월 21일 월요일])
;; 하여 음력 10월 4일 밤 11시부터 10월 5일 새벽 1시까지가 아버지의 공식 제사 시간이다. 
;;  한국 전통 용어로 "자시"라고 부른다.
;; 가정의례준칙에 의거 초저녁 제사를 지내려면 기일(음력 10월 5일) 초저녁에 모인다.
;; 참고문헌: (제사 기준일 정의 -- 어머니와 간병사 아주머니 두분도 이 원칙에 따라 제사 시간을 정하심)
;; https://gitlab.com/soyeomul/stuff/blob/master/Screenshot_20190219-135728.png
;;
;; ::: 아버지 묘소 :::
;; 주소: 경북 포항시 남구 동해면 신정리 1-2번지 (원진사, 수목장림)
;; 전화: 054-284-2122

;; 갑 - 단축번호, 을 - 수정일자, 병 - 분만예정일자, 
;; 정 - 수정차수, 무 - 정액번호, 기 - 임신감정여부, 경 - 설사백신접종여부,
;; 신 - 출생유무 및 비고
;;; 임신감정여부코드: OOO-새끼들었음, XXX-임신실패, NNN-아직감정안함
;;; 설사백신접종여부코드: V00-둘다안함, V01-1차만, V11-둘다함

;; 모든 수정은 엄기일 수정사께서 해주심.
;; 농장에 없는 번식우는 목록에서 제거됨. 단, 6783 은 예외.
;; 수정일자 기준으로 내림차순.

;; 암소가 나갔을지라도 오늘부터는 해당자료를 계속 유지할것 -- 20190420

;갑   ;을       ;병      ;정    ;무       ;기   ;경    ;신

6783 | 161104 | 170817 | 002 | KPN1034 | OOO | V00 | (170817:수)

5182 | 161206 | 170916 | 002 | KPN1069 | OOO | V00 | (170920:암)
1804 | 161219 | 170929 | 001 | KPN1069 | XXX | V00 | (임신실패)
3688 | 170103 | 171013 | 001 | KPN0995 | OOO | V00 | (171015:암)
5479 | 170301 | 171211 | 002 | KPN1055 | OOO | V00 | (171209:수)
3524 | 170318 | 171228 | 001 | KPN1047 | OOO | V00 | (180106:수)
9355 | 170507 | 180217 | 001 | KPN0995 | OOO | V00 | (180220:수)
5390 | 170507 | 180217 | 002 | KPN0995 | OOO | V00 | (180219:암)
1500 | 170526 | 180306 | 002 | KPN1048 | OOO | V00 | (180311:암)
6702 | 170530 | 180310 | 001 | KPN0995 | OOO | V00 | (180305:암)
1292 | 170615 | 180325 | 002 | KPN1116 | OOO | V00 | (180321:암)

1065 | 170618 | 180328 | 002 | KPN1048 | OOO | V00 | (180403:수)
1293 | 170620 | 180330 | 001 | KPN1048 | OOO | V00 | (180331:암)
5076 | 170707 | 180417 | 001 | KPN1035 | OOO | V00 | (180426:수)
8000 | 170808 | 180518 | 001 | KPN1035 | OOO | V00 | (180522:수)
9770 | 170828 | 180608 | 002 | KPN1076 | OOO | V00 | (180613:수)
4048 | 170829 | 180609 | 001 | KPN1076 | OOO | V00 | (180602:수)
0687 | 170830 | 180610 | 001 | KPN1035 | OOO | V00 | (180606:암)
7961 | 170830 | 180610 | 001 | KPN1035 | OOO | V00 | (180609:암)
3975 | 170902 | 180612 | 001 | KPN0968 | OOO | V00 | (180613:암)
6354 | 170903 | 180613 | 001 | KPN1076 | OOO | V00 | (180613:수)

4563 | 170904 | 180614 | 001 | KPN0968 | OOO | V00 | (180622:수)
0505 | 170904 | 180614 | 001 | KPN0968 | OOO | V00 | (180622:수)
5203 | 170905 | 180615 | 001 | KPN0968 | OOO | V00 | (180622:수)
6056 | 170910 | 180620 | 001 | KPN1035 | OOO | V00 | (180625:수)
1294 | 170921 | 180701 | 002 | KPN1034 | OOO | V00 | (180705:수)
9356 | 170922 | 180702 | 001 | KPN1034 | OOO | V00 | (180704:암)
5106 | 170924 | 180704 | 002 | KPN0968 | OOO | V00 | (180708:수)
4564 | 171001 | 180711 | 002 | KPN1116 | OOO | V00 | (180714:수)
5431 | 171005 | 180715 | 002 | KPN1116 | OOO | V00 | (180718:암)
6783 | 171014 | 180724 | 001 | KPN0946 | OOO | V00 | (180802:암)

1804 | 171015 | 180725 | 001 | KPN0946 | OOO | V00 | (180801:수)
6482 | 171019 | 180729 | 002 | KPN0946 | OOO | V00 | (180802:수)
0321 | 171108 | 180818 | 003 | KPN1146 | OOO | V00 | (180809:암)
2432 | 171114 | 180824 | 002 | KPN0968 | XXX | V00 | (재발정)
6832 | 171116 | 180826 | 001 | KPN1146 | OOO | V01 | (180828:수)
6055 | 171119 | 180829 | 001 | KPN1146 | OOO | V01 | (180828:수)
8359 | 171119 | 180829 | 001 | KPN1146 | OOO | V01 | (180904:수)
5182 | 171208 | 180918 | 001 | KPN1098 | OOO | V11 | (임신실패-감정착오)
3688 | 171230 | 181010 | 001 | KPN1076 | OOO | V11 | (181008:수)
5479 | 180225 | 181205 | 001 | KPN1146 | XXX | V00 | (재발정)

5479 | 180320 | 181230 | 002 | KPN1145 | XXX | V00 | (재발정)
3524 | 180325 | 190105 | 001 | KPN1145 | OOO | V11 | (190112:암)
2432 | 180328 | 190108 | 003 | KPN1145 | OOO | V11 | (181231:암)
5390 | 180402 | 190112 | 001 | KPN0968 | XXX | V00 | (재발정)
5523 | 180402 | 190112 | 001 | KPN0968 | XXX | V00 | (재발정)
6866 | 180402 | 190112 | 001 | KPN0968 | OOO | V11 | (190104:암)
5390 | 180411 | 190121 | 002 | KPN0968 | NNN | V11 | (190121:수)
9355 | 180415 | 190125 | 001 | KPN1145 | NNN | V11 | (190124:암)
5523 | 180426 | 190206 | 002 | KPN1124 | NNN | V11 | (190207:암)
6702 | 180429 | 190209 | 001 | KPN1145 | XXX | V00 | (재발정)

1500 | 180501 | 190211 | 001 | KPN1124 | XXX | V00 | (재발정)
6702 | 180507 | 190217 | 002 | KPN1145 | OOO | V11 | (190216:수)
1500 | 180510 | 190220 | 002 | KPN0968 | NNN | V11 | (190301:수)
1293 | 180510 | 190220 | 001 | KPN1145 | NNN | V11 | (190216:암)
5099 | 180605 | 190315 | 001 | KPN1113 | NNN | V11 | (190314:암)
1065 | 180609 | 190319 | 001 | KPN1106 | OOO | V11 | (190320:암)
5076 | 180610 | 190320 | 001 | KPN1106 | NNN | V11 | (190324:수)
4676 | 180618 | 190328 | 001 | KPN1106 | XXX | V00 | (재발정)
5479 | 180704 | 190414 | 002 | KPN1112 | NNN | V11 | (190417:암)
4676 | 180712 | 190422 | 002 | KPN1106 | XXX | V00 | (재발정)

0687 | 180720 | 190430 | 001 | KPN1145 | XXX | V00 | (재발정)
3096 | 180720 | 190430 | 001 | KPN1106 | OOO | V11 | (190421:수)
7961 | 180730 | 190510 | 001 | KPN1053 | OOO | V11 | (190508:암)
8000 | 180731 | 190511 | 001 | KPN1053 | NNN | V11 | (190506:암)
9770 | 180731 | 190511 | 001 | KPN1053 | XXX | V00 | (재발정)
0505 | 180802 | 190512 | 001 | KPN1124 | NNN | V11 | (190512:수)
4563 | 180804 | 190514 | 001 | KPN1053 | NNN | V11 | (190517:수)
3975 | 180809 | 190519 | 001 | KPN1053 | NNN | V11 | (190517:암)
1294 | 180809 | 190519 | 001 | KPN1145 | XXX | V00 | (재발정)
5203 | 180809 | 190519 | 001 | KPN1124 | OOO | V11 | (190530:수)

6354 | 180811 | 190521 | 001 | KPN1144 | XXX | V00 | (재발정)
9770 | 180815 | 190525 | 002 | KPN1053 | OOO | V11 | (190526:암)
6354 | 180816 | 190526 | 002 | KPN1053 | XXX | V00 | (재발정)
4676 | 180826 | 190606 | 003 | KPN1145 | XXX | V00 | (재발정)
4048 | 180828 | 190608 | 001 | KPN1145 | NNN | V11 | (190603:수)
1294 | 180829 | 190619 | 002 | KPN1145 | XXX | V00 | (임신실패)
0687 | 180903 | 190613 | 002 | KPN1145 | OOO | V11 | (190611:수)
1292 | 180906 | 190616 | 001 | KPN1053 | NNN | V11 | (190608:암)
6354 | 180909 | 190619 | 003 | KPN1053 | XXX | V00 | (재발정)
5106 | 180909 | 190619 | 001 | KPN1053 | XXX | V00 | (재발정)

8065 | 180916 | 190626 | 001 | KPN1016 | XXX | V00 | (재발정)
6482 | 180917 | 190627 | 001 | KPN1124 | OOO | V11 | (190630:수)
5431 | 180928 | 190708 | 001 | KPN1016 | XXX | V00 | (재발정)
6354 | 181001 | 190711 | 003 | KPN1016 | OOO | V11 | (190715:암)
5182 | 181002 | 190712 | 001 | KPN1124 | XXX | V00 | (재발정)
5106 | 181002 | 190712 | 002 | KPN1124 | XXX | V00 | (재발정)
6056 | 181002 | 190712 | 001 | KPN1124 | OOO | V11 | (190715:암)
4676 | 181003 | 190713 | 004 | KPN1145 | OOO | V00 | (190711:수)
6055 | 181012 | 190722 | 001 | KPN1113 | OOO | V11 | (190730:암)
8065 | 181014 | 190724 | 002 | KPN1124 | OOO | V11 | (190720:암)

6783 | 181019 | 190729 | 001 | KPN1113 | OOO | V11 | (190806:수)
4564 | 181020 | 190730 | 001 | KPN1145 | XXX | V00 | (재발정)
5106 | 181022 | 190802 | 002 | KPN1113 | XXX | V00 | (재발정)
1804 | 181026 | 190806 | 001 | KPN1124 | OOO | V11 | (190811:암)
4676 | 181031 | 190811 | 005 | KPN1113 | NNN | V01 | (190711:수)
5106 | 181112 | 190822 | 003 | KPN1113 | XXX | V00 | (재발정)
5182 | 181112 | 190822 | 002 | KPN1113 | NNN | V00 | (임신실패)
9356 | 181121 | 190901 | 001 | KPN1195 | NNN | V11 | (190906:암)
3688 | 181123 | 190903 | 001 | KPN1195 | OOO | V11 | (190824:암)
3671 | 181130 | 190910 | 001 | KPN1113 | XXX | V00 | (재발정)

5106 | 181211 | 190921 | 004 | KPN1113 | NNN | V00 | (재발정)
0321 | 181217 | 190927 | 001 | KPN1195 | NNN | V00 | (재발정)
8359 | 190107 | 191017 | 001 | KPN1282 | XXX | V00 | (재발정)
3866 | 190109 | 191019 | 001 | KPN1282 | OOO | V11 | (191026:암)
5431 | 190111 | 191021 | 001 | KPN1195 | OOO | V11 | (191027:암)
3671 | 190121 | 191031 | 002 | KPN1195 | OOO | V11 | (191031:암)
4564 | 190131 | 191111 | 002 | KPN1170 | OOO | V11 | (191110:암)
8359 | 190131 | 191111 | 002 | KPN1170 | OOO | V11 | (191122:수)
5106 | 190304 | 191214 | 001 | KPN1282 | NNN | V00 | (재발정)
0321 | 190313 | 191223 | 002 | KPN1195 | OOO | V00 | (191223:암)

9355 | 190319 | 191229 | 001 | KPN1195 | OOO | V00 | (191228:암)
5106 | 190324 | 200104 | 002 | KPN1124 | XXX | V00 | (임신실패)
1294 | 190329 | 200109 | 001 | KPN1124 | XXX | V00 | (임신실패)
6702 | 190330 | 200110 | 001 | KPN1124 | XXX | V00 | (임신실패)
5523 | 190411 | 200121 | 001 | KPN1195 | OOO | V11 | (200121:암)
2808 | 190501 | 200211 | 001 | KPN1124 | OOO | V11 | (200213:암)
3524 | 190501 | 200211 | 001 | KPN1124 | OOO | V11 | (200211:암)
1500 | 190503 | 200213 | 001 | KPN1106 | XXX | V00 | (재발정)
1293 | 190503 | 200213 | 001 | KPN1106 | XXX | V00 | (재발정)
6866 | 190504 | 200214 | 001 | KPN1124 | XXX | V00 | (임신실패)

1293 | 190505 | 200215 | 002 | KPN1171 | XXX | V00 | (임신실패)
3984 | 190522 | 200302 | 001 | KPN1170 | NNN | V00 | (임신실패)
1500 | 190601 | 200311 | 002 | KPN1170 | OOO | V11 | (200318:암)
8276 | 190605 | 200315 | 001 | KPN1170 | NNN | V00 | (임신실패)
5390 | 190605 | 200315 | 001 | KPN1212 | NNN | V00 | (임신실패)
1065 | 190605 | 200315 | 001 | KPN1124 | NNN | V00 | (임신실패)
5099 | 190606 | 200316 | 001 | KPN1124 | OOO | V11 | (200315:수)
5479 | 190608 | 200318 | 001 | KPN1170 | OOO | V11 | (200314:수)
2432 | 190610 | 200320 | 001 | KPN1124 | OOO | V11 | (재발정)
5076 | 190610 | 200320 | 001 | KPN1170 | OOO | V11 | (200320:수)

8277 | 190613 | 200323 | 001 | KPN1170 | OOO | V11 | (200315:수)
3096 | 190614 | 200324 | 001 | KPN1170 | OOO | V11 | (200321:암)
1292 | 190618 | 200328 | 001 | KPN1124 | NNN | V00 | (임신실패)
1293 | 190618 | 200328 | 001 | KPN1124 | OOO | V11 | (200330:암)
8000 | 190630 | 200410 | 001 | KPN1144 | NNN | V00 | (임신실패)
7961 | 190702 | 200412 | 001 | KPN1144 | NNN | V00 | (임신실패)
6866 | 190705 | 200415 | 001 | KPN1127 | XXX | V00 | (임신실패)
0505 | 190707 | 200417 | 001 | KPN1124 | XXX | V00 | (임신실패)
3975 | 190707 | 200417 | 001 | KPN1124 | OOO | V01 | (200410:수)
9770 | 190710 | 200420 | 001 | KPN1124 | XXX | V00 | (임신실패)

4563 | 190710 | 200420 | 001 | KPN1144 | OOO | V11 | (200423:암)
5203 | 190711 | 200421 | 001 | KPN1144 | XXX | V00 | (임신실패)
4048 | 190717 | 200427 | 001 | KPN1144 | OOO | V11 | (200426:수)
7961 | 190812 | 200522 | 001 | KPN1189 | OOO | V11 | (200520:암)
5106 | 190814 | 200524 | 001 | KPN1112 | XXX | V00 | (임신실패)
1292 | 190814 | 200524 | 001 | KPN1189 | NNN | V00 | (재발정)
2432 | 190815 | 200525 | 001 | KPN1189 | OOO | V11 | (200526:수)
8000 | 190821 | 200601 | 001 | KPN1225 | OOO | V11 | (200525:암)
5390 | 190822 | 200602 | 001 | KPN1124 | OOO | V11 | (200603:암)
6482 | 190828 | 200608 | 001 | KPN1225 | OOO | V11 | (200601:수)

1065 | 190831 | 200611 | 001 | KPN1225 | NNN | V00 | (200612:암)
1292 | 190905 | 200615 | 001 | KPN1189 | OOO | V11 | (200613:암)
6354 | 190905 | 200615 | 001 | KPN1189 | OOO | V11 | (200614:수)
9770 | 190908 | 200618 | 001 | KPN1225 | OOO | V11 | (200622:암)
5203 | 190912 | 200622 | 001 | KPN1189 | OOO | V11 | (200622:암)
0505 | 190916 | 200626 | 001 | KPN1189 | XXX | V00 | (임신실패)
0687 | 190919 | 200629 | 001 | KPN1060 | OOO | V11 | (200701:암)
8065 | 190930 | 200710 | 001 | KPN1189 | NNN | V00 | (재발정)
4676 | 190930 | 200710 | 001 | KPN1189 | OOO | V01 | (200707:수)
6783 | 191006 | 200716 | 001 | KPN1225 | OOO | V01 | (200716:암)

1065 | 191007 | 200717 | 001 | KPN1302 | NNN | V00 | (재발정)
6055 | 191011 | 200721 | 001 | KPN1302 | OOO | V01 | (200727:수)
6056 | 191014 | 200724 | 001 | KPN1302 | OOO | V00 | (200703:유산)
7851 | 191015 | 200725 | 001 | KPN1302 | OOO | V00 | (200724:수)
8065 | 191020 | 200730 | 002 | KPN1150 | OOO | V00 | (200724:암)
7967 | 191020 | 200730 | 001 | KPN1150 | OOO | V00 | (200723:암)
3688 | 191024 | 200804 | 001 | KPN1302 | OOO | V00 | (200802:암)
8300 | 191025 | 200805 | 001 | KPN1225 | OOO | V00 | (200809:수)
7520 | 191025 | 200805 | 001 | KPN1225 | XXX | V00 | (임신실패)
8276 | 191102 | 200812 | 001 | KPN1136 | OOO | V00 | (200812:암)

7559 | 191104 | 200814 | 001 | KPN1136 | OOO | V00 | (200811:수)
7706 | 191108 | 200818 | 001 | KPN1136 | OOO | V00 | (200816:수)
2040 | 191112 | 200822 | 001 | KPN1225 | OOO | V00 | (200821:암)
8744 | 191113 | 200823 | 001 | KPN1302 | OOO | V00 | (200821:수)
1065 | 191124 | 200904 | 001 | KPN1203 | OOO | V00 | (200612:암)
2255 | 191125 | 200905 | 001 | KPN1261 | XXX | V00 | (임신실패)
3984 | 191127 | 200907 | 001 | KPN1261 | OOO | V00 | (200830:수)
0505 | 191210 | 200920 | 001 | KPN1261 | XXX | V00 | (임신실패)
7520 | 191222 | 201002 | 002 | KPN1168 | OOO | V00 | (200909:수)
3866 | 191228 | 201008 | 001 | KPN1261 | XXX | V00 | (임신실패)

3671 | 191231 | 201011 | 001 | KPN1261 | NNN | V00 | (201009:유산)
4564 | 200117 | 201027 | 001 | KPN1168 | NNN | V00 | (201027:암)
8359 | 200117 | 201027 | 001 | KPN1168 | NNN | V00 | (201101:암)
5431 | 200203 | 201113 | 001 | KPN1261 | NNN | V00 | (201116:수)
3866 | 200211 | 201121 | 002 | KPN1229 | NNN | V00 | (재발정)
2255 | 200220 | 201130 | 002 | KPN1229 | NNN | V00 | (201130:수)
9355 | 200226 | 201206 | 001 | KPN1288 | NNN | V00 | (재발정)
3866 | 200304 | 201214 | 003 | KPN1159 | NNN | V00 | (재발정)
9355 | 200318 | 201228 | 002 | KPN1261 | NNN | V00 | (201224:암)
3866 | 200326 | 210106 | 003 | KPN1261 | NNN | V00 | (재발정)

5523 | 200409 | 210119 | 001 | KPN1421 | NNN | V00 | (210125:수)
3866 | 200413 | 210123 | 004 | KPN1421 | NNN | V00 | (210126:암)
0321 | 200502 | 210212 | 001 | KPN1307 | OOO | V00 | (210214:수)
5099 | 200522 | 210302 | 001 | KPN1409 | NNN | V00 | (재발정)
2808 | 200526 | 210306 | 001 | KPN1409 | NNN | V00 | (210315:암)
5479 | 200526 | 210306 | 001 | KPN1297 | NNN | V00 | (재발정)
1500 | 200531 | 210311 | 001 | KPN1278 | NNN | V00 | (재발정)
5479 | 200603 | 210313 | 002 | KPN1278 | NNN | V00 | (재발정)
6700 | 200603 | 210313 | 001 | KPN1278 | NNN | V00 | (210310:수)
6790 | 200603 | 210313 | 001 | KPN1278 | NNN | V00 | (210311:수)

9594 | 200604 | 210314 | 001 | KPN1278 | NNN | V00 | (재발정)
8277 | 200604 | 210314 | 001 | KPN1409 | OOO | V00 | (임신확정 -- 추석시장출하)
5099 | 200612 | 210322 | 001 | KPN1409 | NNN | V00 | (210403:수)
3524 | 200615 | 210325 | 001 | KPN1409 | OOO | V00 | (210405:수)
3096 | 200618 | 210328 | 001 | KPN1292 | NNN | V00 | (비육)
7349 | 200619 | 210329 | 001 | KPN1409 | NNN | V00 | (재발정)
7085 | 200620 | 210401 | 001 | KPN1307 | NNN | V11 | (210324:암)
6967 | 200622 | 210402 | 001 | KPN1307 | NNN | V00 | (210324:암)
9594 | 200624 | 210403 | 002 | KPN1307 | OOO | V00 | (210327:암)
5479 | 200624 | 210403 | 002 | KPN1409 | NNN | V00 | (재발정)

1500 | 200626 | 210406 | 002 | KPN1409 | NNN | V00 | (210419:수)
9988 | 200704 | 210414 | 001 | KPN1298 | NNN | V00 | (재발정)
4563 | 200710 | 210420 | 001 | KPN1298 | NNN | V00 | (재발정)
5479 | 200719 | 210429 | 001 | KPN1151 | NNN | V00 | (210514:암)
9729 | 200729 | 210509 | 001 | KPN1151 | NNN | V00 | (재발정)
7961 | 200730 | 210510 | 001 | KPN1151 | OOO | V00 | (210514:수)
9988 | 200813 | 210523 | 002 | KPN1307 | NNN | V00 | (210520:수)
6354 | 200822 | 210602 | 001 | KPN1284 | NNN | V00 | (재발정)
6354 | 200825 | 210605 | 002 | KPN1307 | NNN | V00 | (210605:수)
7349 | 200904 | 210614 | 002 | KPN1307 | NNN | V00 | (재발정)

0033 | 200905 | 210615 | 001 | KPN1307 | NNN | V00 | (210609:암)
6783 | 200909 | 210619 | 001 | KPN1295 | XXX | V00 | (임신실패)
9770 | 200915 | 210625 | 001 | KPN1307 | NNN | V00 | (210627:수)
4048 | 200918 | 210628 | 001 | KPN1278 | NNN | V11 | (210630:수)
2432 | 201010 | 210720 | 001 | KPN1278 | NNN | V11 | (210717:수)
7349 | 201012 | 210722 | 002 | KPN1278 | NNN | V11 | (210717:암)
4563 | 201015 | 210725 | 002 | KPN1278 | NNN | V00 | (210718:수)
5390 | 201029 | 210809 | 001 | KPN1202 | NNN | V01 | (210807:수)
1418 | 201115 | 210825 | 001 | KPN1298 | NNN | v11 | (210830:암)
0939 | 201126 | 210906 | 001 | KPN1202 | NNN | V11 | (210907:수)

1032 | 201224 | 211004 | 001 | KPN1345 | NNN | V00 | (재발정)
9729 | 201226 | 211006 | 001 | KPN1345 | OOO | V11 | (211001:암)
4676 | 201230 | 211010 | 001 | KPN1345 | NNN | V11 | (211004:암)
3984 | 210106 | 211016 | 001 | KPN1292 | NNN | V00 | (유산)
7706 | 210122 | 211102 | 001 | KPN1311 | NNN | V00 | (재발정)
2208 | 210125 | 211105 | 001 | KPN1345 | XXX | V00 | (유산)
8300 | 210131 | 211111 | 001 | KPN1292 | NNN | V00 | (유산)
7559 | 210221 | 211201 | 001 | KPN1292 | NNN | V00 | (재발정)
8065 | 210226 | 211206 | 001 | KPN1311 | NNN | V00 | (재발정)
3964 | 210228 | 211208 | 001 | KPN1311 | NNN | V00 | (임신실패)

8276 | 210312 | 211222 | 001 | KPN1311 | NNN | V00 | (출하)
8065 | 210318 | 211228 | 002 | KPN1297 | NNN | V00 | (재발정)
7967 | 210318 | 211228 | 001 | KPN1311 | OOO | V00 | (출하)
3980 | 210319 | 211229 | 001 | KPN1311 | NNN | V00 | (출하)
4118 | 210319 | 211229 | 001 | KPN1311 | NNN | V00 | (재발정)
2040 | 210319 | 211229 | 001 | KPN1311 | NNN | V00 | (재발정)
1799 | 210321 | 211231 | 001 | KPN1311 | NNN | V00 | (재발정)
7520 | 210321 | 211231 | 001 | KPN1311 | NNN | V00 | (임신실패)
6783 | 210323 | 220103 | 001 | KPN1311 | NNN | V00 | (임신실패)
8744 | 210326 | 220106 | 001 | KPN1311 | OOO | V00 | (출하)

2255 | 210326 | 220106 | 001 | KPN1311 | OOO | V00 | (유산)
4358 | 210330 | 220110 | 001 | KPN1311 | NNN | V11 | (220108:수)
1857 | 210401 | 220111 | 001 | KPN1311 | OOO | V00 | (출하)
7559 | 210402 | 220112 | 002 | KPN1311 | NNN | V00 | (재발정)
8065 | 210407 | 220117 | 002 | KPN1302 | NNN | V00 | (재발정)
1032 | 210409 | 220119 | 002 | KPN1345 | NNN | V11 | (220111:암)
2040 | 210410 | 220120 | 002 | KPN1302 | NNN | V00 | (임신실패)
1799 | 210412 | 220122 | 002 | KPN1345 | OOO | V00 | (출하)
4196 | 210413 | 220123 | 001 | KPN1345 | NNN | V11 | (220119:암)
1040 | 210414 | 220124 | 001 | KPN1345 | NNN | V00 | (출하)

7706 | 210420 | 220130 | 001 | KPN1345 | OOO | V00 | (출하)
7335 | 210422 | 220202 | 001 | KPN1292 | NNN | V00 | (유산)
4488 | 210511 | 220221 | 001 | KPN1272 | NNN | V11 | (220220:수)
1442 | 210523 | 220302 | 001 | KPN1272 | NNN | V00 | (재발정)
6790 | 210529 | 220309 | 001 | KPN1333 | OOO | V11 | (220313:암)
2261 | 210531 | 220311 | 001 | KPN1302 | OOO | V00 | (출하)
7085 | 210608 | 220318 | 001 | KPN1333 | NNN | V00 | (유산)
6700 | 210610 | 220320 | 001 | KPN1272 | NNN | V11 | (220324:수)
3866 | 210616 | 220326 | 001 | KPN1380 | NNN | V00 | (출하)
2808 | 210617 | 220327 | 001 | KPN1380 | NNN | V00 | (재발정)

1442 | 210617 | 220327 | 002 | KPN1272 | NNN | V11 | (임신실패)
4118 | 210626 | 220406 | 002 | KPN1380 | NNN | V00 | (재발정)
8065 | 210722 | 220502 | 001 | KPN1380 | NNN | V11 | (220508:수)
7559 | 210805 | 220515 | 002 | KPN1333 | NNN | V00 | (임신실패)
3524 | 210813 | 220523 | 001 | KPN1333 | NNN | V11 | (220527:암)
0033 | 210816 | 220526 | 001 | KPN1302 | NNN | V11 | (220529:암)
2808 | 210817 | 220527 | 002 | KPN1302 | NNN | v11 | (220605:수)
1500 | 210819 | 220529 | 001 | KPN1302 | NNN | V00 | (재발정)
6354 | 210819 | 220529 | 001 | KPN1380 | NNN | V11 | (220531:암)
7961 | 210819 | 220529 | 001 | KPN1380 | NNN | V11 | (220605:수)

9988 | 210825 | 220605 | 001 | KPN1350 | NNN | V11 | (220605:수)
0069 | 210903 | 220613 | 001 | KPN1380 | NNN | V00 | (재발정)
6783 | 210909 | 220619 | 001 | KPN1380 | NNN | V00 | (재발정)
0836 | 210915 | 220625 | 001 | KPN1380 | NNN | V11 | (220703:수)
9594 | 211002 | 220712 | 001 | KPN1505 | OOO | V00 | (220726:수)
7349 | 211002 | 220712 | 001 | KPN1505 | NNN | V00 | (재발정)
1500 | 211002 | 220712 | 002 | KPN1373 | OOO | V00 | (220720:암)
5390 | 211006 | 220716 | 001 | KPN1421 | NNN | V00 | (220720:암)
1062 | 211019 | 220729 | 001 | KPN1421 | NNN | V00 | (재발정)
1422 | 211022 | 220802 | 001 | KPN1380 | NNN | V00 | (220803:암)

6783 | 211102 | 220812 | 002 | KPN1350 | OOO | V00 | (220810:암)
1062 | 211108 | 220818 | 002 | KPN1380 | NNN | V00 | (220823:수)
3984 | 211115 | 220825 | 001 | KPN1505 | NNN | V00 | (유산)
0069 | 211124 | 220904 | 002 | KPN1380 | OOO | V00 | (220906:수)
1418 | 211201 | 220911 | 001 | KPN1373 | OOO | V00 | (220908:암)
5479 | 211208 | 220918 | 001 | KPN1373 | NNN | V11 | (임신실패)
2040 | 211209 | 220919 | 001 | KPN1506 | NNN | V11 | (220919:암)
4048 | 211211 | 220921 | 001 | KPN1336 | NNN | V00 | (도축)
3457 | 211220 | 220930 | 001 | KPN1380 | NNN | V11 | (221006:암)
9729 | 211227 | 221007 | 001 | KPN1421 | NNN | V00 | (재발정)

0939 | 211227 | 221007 | 001 | KPN1421 | OOO | V11 | (221006:암)
5099 | 220103 | 221013 | 001 | KPN1350 | NNN | V11 | (221006:암)
8300 | 220108 | 221018 | 001 | KPN1506 | NNN | V11 | (221023:수)
7349 | 220109 | 221019 | 001 | KPN1421 | NNN | V00 | (재발정)
9729 | 220130 | 221110 | 001 | KPN1380 | NNN | V00 | (재발정)
7335 | 220221 | 221201 | 001 | KPN1421 | NNN | V01 | (221205:암)
9729 | 220222 | 221202 | 002 | KPN1302 | XXX | V00 | (괴사)
4118 | 220223 | 221203 | 001 | KPN1373 | NNN | V01 | (221203:암)
2255 | 220223 | 221203 | 001 | KPN1373 | NNN | V00 | (재발정)
6587 | 220225 | 221205 | 001 | KPN1373 | NNN | V00 | (재발정)

4358 | 220326 | 230106 | 001 | KPN1349 | NNN | V11 | (230104:수)
6587 | 220329 | 230109 | 002 | KPN1342 | OOO | V11 | (230104:암)
2255 | 220402 | 230112 | 002 | KPN1360 | XXX | V00 | (임신실패) 
1032 | 220409 | 230119 | 001 | KPN1349 | NNN | V11 | (230119:유산)
7085 | 220504 | 230214 | 001 | KPN1342 | NNN | V00 | (출하)
7349 | 220509 | 230219 | 001 | KPN1342 | OOO | V11 | (230217:유산)
8732 | 220512 | 230222 | 001 | KPN1423 | NNN | V00 | (재발정)
1442 | 220512 | 230222 | 001 | KPN1349 | NNN | V11 | (임신실패)
4488 | 220602 | 230312 | 001 | KPN1333 | NNN | V11 | (유산)
6700 | 220701 | 230411 | 001 | KPN1342 | NNN | V11 | (230411:암)

0071 | 220707 | 230417 | 001 | KPN1342 | NNN | V00 | (재발정)
0071 | 220726 | 230506 | 002 | KPN1333 | NNN | V00 | (재발정)
8065 | 220821 | 230531 | 001 | KPN1456 | OOO | V11 | (230523:암)
7961 | 220823 | 230603 | 001 | KPN1360 | NNN | V00 | (재발정)
0836 | 220829 | 230609 | 001 | KPN1360 | OOO | V11 | (230613:수)
6354 | 220831 | 230611 | 001 | KPN1342 | NNN | V00 | (재발정)
4676 | 220831 | 230611 | 001 | KPN1456 | OOO | V11 | (230610:수)
3930 | 220901 | 230611 | 001 | KPN1342 | NNN | V00 | (재발정)
8909 | 220901 | 230611 | 001 | KPN1342 | NNN | V11 | (230610:수)
4196 | 220906 | 230616 | 001 | KPN1363 | OOO | V01 | (230613:암)

0033 | 220918 | 230628 | 001 | KPN1456 | NNN | V00 | (재발정)
0071 | 220922 | 230702 | 003 | KPN1401 | NNN | V11 | (임신실패)
2808 | 221003 | 230713 | 001 | KPN1559 | NNN | V11 | (230718:암)
6783 | 221007 | 230717 | 001 | KPN1456 | OOO | V11 | (230712:수)
6354 | 221015 | 230725 | 002 | KPN1409 | NNN | V00 | (재발정)
9988 | 221018 | 230728 | 001 | KPN1456 | OOO | V01 | (230725:암)
1062 | 221024 | 230804 | 001 | KPN1434 | OOO | V01 | (230816:암)
0033 | 221104 | 230814 | 002 | KPN1456 | NNN | V00 | (재발정)
7961 | 221111 | 230821 | 002 | KPN1434 | OOO | V01 | (230825:암)
0069 | 221112 | 230822 | 001 | KPN1434 | OOO | V01 | (230817:암)

6790 | 221117 | 230827 | 001 | KPN1434 | NNN | V00 | (임신실패)
8300 | 221203 | 230913 | 001 | KPN1434 | NNN | V00 | (230919:사고사)
3930 | 221205 | 230915 | 002 | KPN1434 | NNN | V00 | (230901:수)
8732 | 221214 | 230924 | 001 | KPN1469 | OOO | V11 | (231009:수)
5099 | 230108 | 231018 | 001 | KPN1559 | NNN | V00 | (재발정)
0033 | 230113 | 231023 | 001 | KPN1434 | NNN | V01 | (231025:암)
0894 | 230124 | 231104 | 001 | KPN1469 | NNN | V00 | (231107:수)
6279 | 230127 | 231107 | 001 | KPN1469 | OOO | V00 | (231105:수)
5099 | 230129 | 231109 | 002 | KPN1559 | NNN | V00 | (재발정)
6354 | 230209 | 231119 | 002 | KPN1434 | NNN | V11 | (231124:암)

1422 | 230212 | 231122 | 001 | KPN1297 | NNN | V00 | (재발정)
6280 | 230219 | 231129 | 001 | KPN1469 | NNN | V00 | (임신실패)
7335 | 230303 | 231213 | 001 | KPN1409 | NNN | V11 | (231217:암)
1032 | 230307 | 231217 | 001 | KPN1449 | NNN | V00 | (231218:암)
1422 | 230307 | 231217 | 002 | KPN1449 | NNN | V00 | (재발정)
7914 | 230310 | 231220 | 001 | KPN1409 | NNN | V00 | (재발정)
1442 | 230316 | 231226 | 001 | KPN1449 | NNN | V00 | (재발정)
6587 | 230316 | 231226 | 001 | KPN1449 | NNN | V11 | (231230:암)
7896 | 230322 | 240102 | 001 | KPN1297 | NNN | V00 | (231230:암)
3457 | 230328 | 240108 | 001 | KPN1477 | NNN | V00 | (240111:수)

5099 | 230330 | 240110 | 002 | KPN1449 | NNN | V00 | (240111:수)
4358 | 230405 | 240115 | 001 | KPN1469 | NNN | V00 | (재발정)
1422 | 230406 | 240116 | 002 | KPN1449 | NNN | V00 | (재발정)
0939 | 230406 | 240116 | 001 | KPN1449 | OOO | V00 | (240121:수)
1442 | 230409 | 240119 | 002 | KPN1297 | NNN | V00 | (임신실패 -- 비육)
4358 | 230422 | 240202 | 002 | KPN1469 | NNN | V11 | (240207:수)
4488 | 230424 | 240204 | 001 | KPN1360 | NNN | V00 | (임신실패)
1422 | 230426 | 240206 | 002 | KPN1469 | NNN | V00 | (240206:유산)
4118 | 230501 | 240211 | 001 | KPN1469 | NNN | V11 | (240209:수)
7349 | 230516 | 240223 | 001 | KPN1490 | NNN | V00 | (임신실패)

7914 | 230522 | 240302 | 001 | KPN1297 | NNN | V00 | (재발정)
7914 | 230610 | 240420 | 002 | KPN1490 | NNN | V00 | (임신실패)
6280 | 230705 | 240415 | 001 | KPN1490 | NNN | V11 | (240405:암)
6790 | 230709 | 240419 | 001 | KPN1530 | NNN | V00 | (재발정)
2040 | 230723 | 240503 | 001 | KPN1530 | NNN | V00 | (도축)
6790 | 230729 | 240509 | 002 | KPN1530 | NNN | V00 | (도축)
7349 | 230808 | 240518 | 001 | KPN1530 | NNN | V00 | (도축)
2876 | 230818 | 240528 | 001 | KPN1530 | NNN | V01 | (240523:수)
8065 | 230819 | 240529 | 001 | KPN1530 | NNN | V00 | (240601:수)
4196 | 230825 | 240605 | 001 | KPN1530 | NNN | V00 | (임신실패)

4676 | 230831 | 240611 | 001 | KPN1530 | NNN | V01 | (유산)
8909 | 230831 | 240611 | 001 | KPN1530 | NNN | V00 | (240612:수)
2862 | 230904 | 240614 | 001 | KPN1530 | NNN | V01 | (240615:수)
0836 | 230925 | 240705 | 001 | KPN1434 | OOO | V00 | (240702:암)
6783 | 231006 | 240716 | 001 | KPN1530 | OOO | V00 | (240715:수)
6282 | 231010 | 240720 | 001 | KPN1490 | NNN | V00 | (240713:수)
1062 | 231118 | 240828 | 001 | KPN1434 | OOO | V00 | (240906:수)
1101 | 231119 | 240829 | 001 | KPN1408 | OOO | V00 | (240821:암)
6761 | 231121 | 240901 | 001 | KPN1502 | NNN | V00 | (240827:수)
8732 | 231205 | 240915 | 001 | KPN1469 | NNN | V00 | (임신실패)

3930 | 231206 | 240916 | 001 | KPN1469 | NNN | V00 | (240911:암)
7961 | 240121 | 241101 | 001 | KPN1469 | NNN | V00 | (재발정)
7961 | 240302 | 241212 | 002 | KPN1481 | NNN | V00 | (241217:수)
2808 | 240302 | 241212 | 001 | KPN1481 | NNN | V00 | (241218:수)
6279 | 240304 | 241213 | 001 | KPN1469 | NNN | V00 | (241218:수)
7335 | 240304 | 241213 | 001 | KPN1329 | NNN | V00 | (재발정)
6354 | 240307 | 241217 | 001 | KPN1481 | NNN | V00 | (재발정)
1379 | 240307 | 241217 | 001 | KPN1408 | NNN | V00 | (재발정)
3475 | 240310 | 241220 | 001 | KPN1423 | NNN | V00 | (재발정)
6587 | 240310 | 241220 | 001 | KPN1423 | NNN | V00 | (241219:수)

6354 | 240310 | 241220 | 002 | KPN1469 | NNN | V00 | (NA)
0939 | 240313 | 241223 | 001 | KPN1449 | OOO | V00 | (NA)
7335 | 240323 | 250103 | 002 | KPN1469 | NNN | V00 | (NA)
1379 | 240324 | 250104 | 002 | KPN1329 | NNN | V00 | (사고사)
3475 | 240404 | 250114 | 002 | KPN1449 | NNN | V00 | (NA)
2887 | 240405 | 250115 | 001 | KPN1449 | NNN | V00 | (NA)
7896 | 240405 | 250115 | 001 | KPN1449 | NNN | V00 | (재발정)
7896 | 240413 | 250123 | 002 | KPN1449 | NNN | V00 | (NA)
5099 | 240427 | 250207 | 001 | KPN1449 | NNN | V00 | (재발정)
5099 | 240428 | 250208 | 001 | KPN1481 | NNN | V00 | (NA)

4358 | 240501 | 250211 | 001 | KPN1449 | OOO | V00 | (NA)
6250 | 240608 | 250318 | 001 | KPN1449 | NNN | V00 | (NA)
4118 | 240625 | 250405 | 001 | KPN1449 | NNN | V00 | (NA)
3457 | 240729 | 250509 | 001 | KPN1471 | NNN | V00 | (NA)
0836 | 240903 | 250613 | 001 | KPN1471 | NNN | V00 | (NA)
8065 | 241008 | 250718 | 001 | KPN1481 | NNN | V00 | (NA)
9923 | 241010 | 250720 | 001 | KPN1471 | NNN | V00 | (NA)
6280 | 241126 | 250906 | 001 | KPN1600 | NNN | V00 | (NA)

;;; 수정 차수 필히 기록할 것 2022년 부터. 군 지원비 삭감되었음.
;;; 2022년 수정비 단가: 1차 35000 / 2차 35000 / 3차 30000

수정비외상: [8065, 9923, 6280,]

;; 편집: Emacs 26.1 (Ubuntu 18.04)
;; 마지막 갱신: 2024년 12월 19일
