;; -*- coding: utf-8 -*-
;; 파일이름: 005chh.txt
;; 파일내용: 출하 현황

;; 갑 - 단축번호 (개체식별번호), 을 - 성별,
;; 병 - 출생일자, 정 - 모 개체식별번호, 무 - 출하 경로 및 비고
;;
;; 우시장 경매로 나가는 경우는 여러 유형이 있음..
;; 암송아지, 수송아지, 비육암소(연령제한없음), 새끼밴암소, 
;; 새끼뺀후깐돌이와함께, 거세비육(아주드문경우), 기타 등등 ...
;; 환우는 치료후 낼것. 우시장이나 도축장이나 환우는 사람들이 그닥 좋아하지 않음. 

;; 세자릿수가 넘어가기전에 포덕천하를...!!!

      ;갑                  ;을   ;병       ;정            ;무

@ 2017년 2월 2일 목요일 
[001] 4329 (002308443294) | 거세 | 140421 | 002066781562 | 한우조합 (도축)
[002] 9354 (002091993542) | 거세 | 140507 | 002079012948 | 한우조합 (도축)
[003] 9759 (002091997596) | 거세 | 140518 | 002079012930 | 한우조합 (도축)
[004] 4099 (002308840995) | 거세 | 140605 | 002015506830 | 한우조합 (도축)

@ 2017년 3월 20일 월요일
[005] 1147 (002092011472) | 거세 | 140614 | 002079010653 | 한우조합 (도축)
[006] 6217 (002092762173) | 거세 | 140726 | 002079012921 | 한우조합 (도축)
[007] 6218 (002092762181) | 거세 | 140727 | 002300175367 | 한우조합 (도축)
[008] 3613 (002094036135) | 거세 | 140808 | 002026628818 | 한우조합 (도축)
[009] 3764 (002094037646) | 거세 | 140825 | 002066781579 | 한우조합 (도축)
[010] 6113 (002309861139) | 거세 | 140915 | 002061079516 | 한우조합 (도축)

@ 2017년 6월 1일 목요일
[011] 6188 (002309861882) | 거세 | 140919 | 002079018049 | 한우조합 (도축)
[012] 3783 (002094037839) | 거세 | 140921 | 002079024328 | 한우조합 (도축)
[013] 3874 (002094038743) | 거세 | 141007 | 002066781587 | 한우조합 (도축)
[014] 1499 (002095014991) | 거세 | 141115 | 002058499534 | 한우조합 (도축)
[015] 1847 (002095018478) | 거세 | 141202 | 002047731021 | 한우조합 (도축)

@ 2017년 9월 25일 월요일
[016] 5215 (002105152158) | 암소 | 160211 | 002087052034 | 영주시장 (경매)
[017] 5429 (002105154294) | 암소 | 160309 | 002308443497 | 영주시장 (경매)
[018] 6365 (002313063652) | 암소 | 160405 | 002061079485 | 영주시장 (경매)

@ 2017년 10월 18일 수요일
[019] 9773 (002310897735) | 거세 | 150309 | 002079018024 | 한우조합 (도축)
[020] 9771 (002310897719) | 거세 | 150310 | 002058498863 | 한우조합 (도축)
[021] 9772 (002310897727) | 거세 | 150312 | 002052005605 | 한우조합 (도축)
[022] 8089 (002097980894) | 거세 | 150425 | 002068980008 | 한우조합 (도축)
[023] 8152 (002097981522) | 거세 | 150503 | 002085464829 | 한우조합 (도축)

@ 2017년 10월 25일 수요일
[024] 7993 (002068979938) | 암소 | 111223 | 002034636069 | 영주시장 (경매-비육) 
[025] 4071 (002106340719) | 암소 | 160502 | 002079018024 | 영주시장 (경매)

@ 2017년 10월 31일 화요일
[026] 8088 (002097980886) | 거세 | 150425 | 002068979938 | 한우조합 (도축)
[027] 7040 (002096770406) | 거세 | 150705 | 002079012948 | 한우조합 (도축)
[028] 7045 (002096770455) | 거세 | 150718 | 002026628818 | 한우조합 (도축)
[029] 5445 (002102454453) | 거세 | 150806 | 002085467833 | 한우조합 (도축)
[030] 5807 (002102458075) | 거세 | 151012 | 002087051824 | 한우조합 (도축)

@ 2017년 12월 5일 화요일
[031] 9988 (002058499884) | 암소 | 110124 | 002003016614 | 영주시장 (경매)

@ 2018년 1월 5일 금요일
[032] 7948 (002061079485) | 암소 | 101117 | 002003006452 | 영주시장 (경매)

@ 2018년 1월 25일 목요일
[033] 5718 (002089857182) | 암소 | 140202 | 002061079485 | 영주시장 (경매)
[034] 8151 (002097981514) | 암소 | 150503 | 002085467044 | 영주시장 (경매)

@ 2018년 2월 5일 월요일
[035] 4515 (002116345158) | 암소 | 170309 | 002097981506 | 영주시장 (경매)

@ 2018년 2월 25일 일요일
[036] 8149 (002097981491) | 암소 | 150502 | 002079012930 | 영주시장 (경매)

@ 2018년 2월 27일 화요일
[037] 2264 (002117122640) | 암소 | 170427 | 002097983590 | 삼척시장 (경매)
[038] 3009 (002120830098) | 암소 | 170724 | 002085467044 | 삼척시장 (경매)

@ 2018년 3월 5일 월요일
[039] 1498 (002095014983) | 암소 | 141114 | 002058499542 | 영주시장 (경매)
[040] 8384 (002097983846) | 암소 | 150505 | 002085467028 | 영주시장 (경매)

@ 2018년 3월 15일 목요일
[041] 4979 (002114549796) | 암소 | 170226 | 002310897702 | 영주시장 (경매)
[042] 2569 (002117125693) | 암소 | 170508 | 002073868325 | 영주시장 (경매)

@ 2018년 3월 27일 화요일
[043] 8066 (002116980663) | 암소 | 170420 | 002058499884 | 삼척시장 (경매)
[044] 2509 (002117125095) | 암소 | 170505 | 002085464829 | 삼척시장 (경매)

@ 2018년 4월 30일 월요일
[045] 4291 (002114542910) | 암소 | 170121 | 002091993559 | 영주시장 (경매)
[046] 2051 (002313420515) | 암소 | 160830 | 002085467044 | 영주시장 (경매)

@ 2018년 6월 10일 일요일
[047] 4084 (002094040842) | 암소 | 141013 | 002079020052 | 영주시장 (경매)

@ 2018년 7월 10일 화요일
[048] 1802 (002079018024) | 암소 | 120717 | 002015497225 | 영주시장 (경매-비육)

@ 2018년 7월 15일 일요일
[049] 8150 (002097981506) | 암소 | 150502 | 002079010653 | 한우조합 (도축)
[050] 5430 (002105154309) | 거세 | 160312 | 002091060555 | 한우조합 (도축)
[051] 5216 (002105152166) | 거세 | 160211 | 002305053909 | 한우조합 (도축)
[052] 6455 (002104864552) | 거세 | 160227 | 002308441713 | 한우조합 (도축)

@ 2018년 8월 9일 목요일
[053] 3651 (002123336512) | 수소 | 171209 | 002101954796 | 울진시장 (경매)

@ 2018년 8월 27일 월요일
[054] 6652 (002104866520) | 거세 | 160314 | 002071696076 | 한우조합 (도축)
[055] 8561 (002107685617) | 거세 | 160526 | 002308445600 | 한우조합 (도축)
[056] 4037 (002106340374) | 거세 | 160418 | 002068980008 | 한우조합 (도축)
[057] 6353 (002313063530) | 거세 | 160402 | 002308445634 | 한우조합 (도축)
[058] 6352 (002313063521) | 거세 | 160401 | 002091060563 | 한우조합 (도축)

@ 2018년 9월 9일 일요일
[059] 9886 (002058498863) | 암소 | 110308 | 002034644905 | 울진시장 (경매-비육)

@ 2018년 10월 4일 목요일
[060] 8713 (002111887134) | 거세 | 161026 | 002094040842 | 한우조합 (도축)
[061] 6355 (002313063556) | 거세 | 160405 | 002089857182 | 한우조합 (도축)
[062] 7962 (002312079628) | 거세 | 160306 | 002091993559 | 한우조합 (도축)
[063] 8841 (002107688416) | 거세 | 160603 | 002058499884 | 한우조합 (도축)
[064] 0600 (002106406004) | 거세 | 160501 | 002305050769 | 한우조합 (도축)
[065] 0599 (002106405997) | 거세 | 160430 | 002085464829 | 한우조합 (도축)
[066] 0533 (002106405331) | 거세 | 160427 | 002085467028 | 한우조합 (도축)

@ 2018년 10월 9일 화요일
[067] 2005 (002079020052) | 암소 | 120818 | 002038970088 | 울진시장 (경매)

@ 2018년 11월 9일 금요일
[068] 4349 (002308443497) | 암소 | 140423 | 002068980008 | 울진시장 (경매)

@ 2018년 11월 24일 토요일
[069] 7966 (002128579666) | 수소 | 180613 | 002310897702 | 울진시장 (경매)
[070] 8092 (002128580926) | 수소 | 180522 | 002068980008 | 울진시장 (경매)

@ 2019년 1월 9일 수요일
[071] 6704 (002085467044) | 암소 | 130523 | 002066779391 | 울진시장 (경매-비육)

@ 2019년 2월 11일 월요일
[072] 4038 (002106340382) | 거세 | 160421 | 002091993567 | 고령공판장 (도축)
[073] 8486 (002111884867) | 거세 | 161008 | 002079020052 | 고령공판장 (도축)
[074] 8485 (002111884859) | 프리 | 161008 | 002079020052 | 고령공판장 (도축)

@ 2019년 2월 24일 일요일
[075] 4047 (002106340479) | 암소 | 160424 | 002079012930 | 울진시장 (경매)

@ 2019년 3월 17일 일요일
[076] 8087 (002097980878) | 암소 | 150425 | 002305050769 | 고령공판장 (도축)

@ 2019년 3월 21일 목요일
[077] 1022 (002109610228) | 거세 | 160822 | 002085467833 | 한우조합 (도축)
[078] 2151 (002313421518) | 거세 | 160907 | 002087051824 | 한우조합 (도축)
[079] 9801 (002114298010) | 거세 | 161218 | 002079012921 | 한우조합 (도축)

@ 2019년 5월 9일 목요일
[080] 6702 (002085467028) | 암소 | 130520 | 002066780408 | 울진시장 (경매-비육)

@ 2019년 8월 6일 화요일
[081] 6832 (002073868325) | 암소 | 120126 | 002034630834 | 김해공판장 (도축-비육)
[082] 1294 (002079012948) | 암소 | 120507 | 002003016526 | 김해공판장 (도축-비육)
[083] 5182 (002087051824) | 암소 | 131017 | 002058493504 | 김해공판장 (도축-비육)

@ 2019년 8월 22일 수요일
[084] 5056 (002116350564) | 거세 | 170326 | 002079010653 | 고령공판장 (도축)
[085] 5353 (002116353534) | 거세 | 170331 | 002097981514 | 고령공판장 (도축)
[086] 7666 (002116976666) | 거세 | 170407 | 002085467028 | 고령공판장 (도축)
[087] 7964 (002116979644) | 거세 | 170416 | 002305050769 | 고령공판장 (도축)

@ 2019년 9월 30일 월요일
[088] 0053 (002114300530) | 거세 | 161231 | 002095015009 | 고령공판장 (도축)
[089] 4417 (002114544178) | 거세 | 170205 | 002087051066 | 고령공판장 (도축)
[090] 5292 (002114552926) | 거세 | 170307 | 002091060563 | 고령공판장 (도축)
[091] 5354 (002116353542) | 거세 | 170403 | 002061079485 | 고령공판장 (도축)

@ 2019년 11월 4일 월요일
[092] 5055 (002116350556) | 거세 | 170326 | 002058498863 | 고령공판장 (도축)
[093] 5054 (002116350548) | 거세 | 170327 | 002091993567 | 고령공판장 (도축)
[094] 5355 (002116353559) | 거세 | 170403 | 002089857182 | 고령공판장 (도축)

@ 2019년 11월 30일 토요일
[095] 5057 (002116350572) | 거세 | 170325 | 002096768669 | 고령공판장 (도축)
[096] 2510 (002117125100) | 거세 | 170506 | 002308445634 | 고령공판장 (도축)
[097] 2570 (002117125708) | 거세 | 170509 | 002068980008 | 고령공판장 (도축)
[098] 2853 (002117128534) | 거세 | 170515 | 002087052034 | 고령공판장 (도축)

@ 2020년 1월 5일 일요일
[099] 4812 (002116348125) | 거세 | 170317 | 002097983846 | 고령공판장 (도축)
[100] 9553 (002120295531) | 거세 | 170714 | 002079012948 | 고령공판장 (도축)

@ 2020년 1월 10일 금요일
[101] 6866 (002096768669) | 암소 | 150227 | 002061079485 | 김해공판장 (도축)

@ 2020년 3월 2일 월요일
[102] 2759 (002120827592) | 거세 | 170817 | 002085467833 | 부경공판장 (도축)

@ 2020년 4월 5일 일요일
[103] 5106 (002087051066) | 암소 | 130923 | 002047731030 | 김해공판장 (도축)
[104] 3325 (002123333254) | 거세 | 180106 | 002104435248 | 김해공판장 (도축)

@ 2020년 5월 6일 수요일
[105] 9356 (002091993567) | 암소 | 140508 | 002073868325 | 김해공판장 (도축)

@ 2020년 7월 10일 금요일
[106] 0505 (002106405052) | 암소 | 160426 | 002073868325 | 울진시장 (경매-비육)
[107] 4357 (002145543578) | 암소 | 191026 | 002120838660 | 울진시장 (경매)
[108] 4695 (002145546955) | 수소 | 191122 | 002097983590 | 울진시장 (경매)

@ 2020년 8월 20일 목요일
[109] 7962 (002125879625) | 거세 | 180220 | 002091993559 | 한우조합 (도축)
[110] 8277 (002125882776) | 거세 | 180306 | 002308443497 | 한우조합 (도축)
[111] 8347 (002126383478) | 거세 | 180403 | 002079010653 | 한우조합 (도축)
[112] 6905 (002126369056) | 거세 | 180426 | 002305050769 | 한우조합 (도축)

@ 2020년 8월 25일 화요일
[113] 1293 (002079012930) | 암소 | 120507 | 002003016526 | 부경공판장 (도축)
[114] 5203 (002087052034) | 암소 | 131101 | 002066781587 | 부경공판장 (도축)

@ 2020년 9월 4일 금요일
[115] 0687 (002106406877) | 암소 | 160503 | 002058498863 | 김해공판장 (긴급도축)

@ 2020년 9월 17일 목요일
[116] 3096 (002117130963) | 암소 | 170526 | 002079018024 | 신흥공판장 (긴급도축)

@ 2020년 9월 25일 금요일
[117] 8277 (002126382772) | 암소 | 180331 | 002079012930 | 울진시장 (경매)
[118] 7333 (002147873336) | 암소 | 200211 | 002104435248 | 울진시장 (경매)

@ 2020년 10월 13일 화요일
[119] 3671 (002120836711) | 암소 | 170920 | 002087051824 | 신흥공판장 (긴급도축)

@ 2020년 11월 5일 목요일
[120] 6056 (002091060563) | 암소 | 140405 | 002058498863 | 부경공판장 (도축)
[121] 1804 (002079018049) | 암소 | 120728 | 002015497217 | 부경공판장 (도축)
[122] 3975 (002104439758) | 암소 | 151203 | 002079012921 | 부경공판장 (도축)

@ 2020년 12월 11일 금요일
[123] 0129 (002155201297) | 암소 | 200613 | 002079012921 | 울진시장 (경매)

@ 2021년 1월 4일 월요일
[124] 7768 (002128577689) | 거세 | 180602 | 002106340487 | 고령공판장 (도축)
[125] 7968 (002128579682) | 거세 | 180613 | 002313063548 | 고령공판장 (도축)
[126] 8377 (002128583772) | 거세 | 180619 | 002106340479 | 고령공판장 (도축)
[127] 8506 (002128585067) | 거세 | 180622 | 002308445634 | 고령공판장 (도축)
[128] 7596 (002128575964) | 거세 | 180622 | 002106405052 | 고령공판장 (도축)
[129] 8505 (002128585059) | 거세 | 180622 | 002087052034 | 고령공판장 (도축)
[130] 8550 (002128585501) | 거세 | 180625 | 002058467044 | 고령공판장 (도축)
[131] 8780 (002128587802) | 거세 | 180705 | 002079012948 | 고령공판장 (도축)
[132] 2256 (002131822562) | 거세 | 180802 | 002085464829 | 고령공판장 (도축)

@ 2021년 1월 13일 수요일
[133] 1065 (002079010653) | 암소 | 120402 | 002055854208 | 김해공판장 (도축)
[134] 1292 (002079012921) | 암소 | 120503 | 002026628818 | 김해공판장 (도축)
[135] 6055 (002091060555) | 암소 | 140320 | 002038973133 | 김해공판장 (도축)

@ 2021년 1월 22일 금요일
[136] 0493 (002155204931) | 암소 | 200701 | 002106406877 | 울진시장 (경매)

@ 2021년 2월 5일 금요일
[137] 1662 (002150516621) | 암소 | 200423 | 002308445634 | 울진시장 (경매)

@ 2021년 3월 29일 월요일
[138] 8892 (002128588928) | 거세 | 180714 | 002308445642 | 한우조합 (도축)
[139] 2231 (002131822312) | 거세 | 180801 | 002079018049 | 한우조합 (도축)
[140] 9437 (002132494377) | 거세 | 180828 | 002073868325 | 한우조합 (도축)
[141] 9513 (002132495136) | 거세 | 180904 | 002097983590 | 한우조합 (도축)
[142] 9787 (002132497870) | 거세 | 181008 | 002104436886 | 한우조합 (도축)
			
@ 2021년 3월 30일 화요일
[143] 8000 (002068980008) | 암소 | 111231 | 002019680303 | 부경공판장 (도축)
[144] 6482 (002085464829) | 암소 | 130428 | 002003016526 | 부경공판장 (도축)
[145] 3688 (002104436886) | 암소 | 151120 | 002079024328 | 부경공판장 (도축)
[146] 7851 (002128578510) | 암소 | 180606 | 002106406877 | 부경공판장 (도축)
[147] 5076 (002305050769) | 암소 | 130324 | 002055854208 | 부경공판장 (도축)

@ 2021년 4월 9일 금요일
[148] 4205 (002148642055) | 암소 | 200318 | 002095015009 | 울진시장 (경매)
[149] 4284 (002148642846) | 암소 | 200321 | 002117130963 | 울진시장 (경매)
[150] 1065 (002150510651) | 암소 | 200330 | 002079012930 | 울진시장 (경매)
[151] 6158 (002152661582) | 암소 | 200520 | 002312079610 | 울진시장 (경매)

@ 2021년 6월 25일 금요일
[152] 4763 (002157547632) | 암소 | 201101 | 002097983590 | 울진시장 (경매)

@ 2021년 6월 30일 수요일
[153] 8359 (002097983590) | 암소 | 150514 | 002073868325 | 부경공판장 (도축)
[154] 5523 (002101955230) | 암소 | 150715 | 002066781579 | 부경공판장 (도축)
[155] 5431 (002105154317) | 암소 | 160313 | 002087051066 | 부경공판장 (도축)
[156] 0321 (002109603212) | 암소 | 160716 | 002079012948 | 부경공판장 (도축)

@ 2021년 7월 23일 금요일
[157] 1665 (002159716656) | 수소 | 201130 | 002131822554 | 울진시장 (경매)

@ 2021년 8월 13일 금요일
[158] 6279 (002152662794) | 암소 | 200525 | 002068980008 | 울진시장 (경매)
[159] 1061 (002155210618) | 암소 | 200622 | 002310897702 | 울진시장 (경매)
[160] 1423 (002155214236) | 암소 | 200725 | 002128579674 | 울진시장 (경매)
[161] 3105 (002157531056) | 암소 | 200812 | 002125882768 | 울진시장 (경매)
[162] 4675 (002157546752) | 암소 | 201027 | 002304845642 | 울진시장 (경매)
[163] 2093 (002159720931) | 암소 | 201224 | 002091993559 | 울진시장 (경매)

@ 2021년 8월 27일 금요일
[164] 1799 (002147017998) | 암소 | 191223 | 002109603212 | 울진시장 (경매)
[165] 1857 (002147018579) | 암소 | 191228 | 002091993559 | 울진시장 (경매)
[166] 2261 (002147022617) | 암소 | 200121 | 002101955230 | 울진시장 (경매)

@ 2021년 9월 2일 목요일
[167] 9438 (002132494385) | 거세 | 180828 | 002091060555 | 한우조합 (도축)
[168] 6943 (002135369432) | 거세 | 190121 | 002305053909 | 한우조합 (도축)
[169] 7345 (002135373455) | 거세 | 190216 | 002085467028 | 한우조합 (도축)
[170] 5297 (002137052971) | 거세 | 190301 | 002095015009 | 한우조합 (도축)
[171] 7213 (002135372132) | 거세 | 190324 | 002305050769 | 한우조합 (도축)

@ 2021년 9월 10일 금요일
[172] 7706 (002126377060) | 암소 | 180321 | 002079012921 | 울진시장 (경매)
[173] 1484 (002160514843) | 수소 | 210125 | 002101955230 | 울진시장 (경매)
[174] 1907 (002160519077) | 수소 | 210218 | 002109603212 | 울진시장 (경매)

@ 2021년 9월 24일 금요일
[175] 3980 (002143339803) | 암소 | 190715 | 002313063548 | 울진시장 (경매)
[176] 1040 (002144010400) | 암소 | 190811 | 002079018049 | 울진시장 (경매)
[177] 8744 (002128587440) | 암소 | 180704 | 002091993567 | 울진시장 (경매)

@ 2021년 10월 8일 금요일
[178] 8276 (002125882768) | 암소 | 180305 | 002085467028 | 울진시장 (경매)
[179] 7967 (002128579674) | 암소 | 180613 | 002104439758 | 울진시장 (경매)

@ 2021년 10월 22일 금요일
[180] 3866 (002120838660) | 암소 | 171015 | 002104436886 | 울진시장 (경매)
[181] 1524 (002160515240) | 암소 | 210126 | 002120838660 | 울진시장 (경매)

@ 2021년 12월 10일 금요일
[182] 8981 (002161789815) | 암소 | 210324 | 002135370854 | 울진시장 (경매)
[183] 8982 (002161789823) | 암소 | 210324 | 002135369674 | 울진시장 (경매)

@ 2021년 12월 31일 금요일
[184] 1183 (002138511831) | 거세 | 190512 | 002106405052 | 한우조합 (도축) 
[185] 1470 (002138514709) | 거세 | 190530 | 002087052034 | 한우조합 (도축)
[186] 2044 (002138520449) | 거세 | 190603 | 002106340487 | 한우조합 (도축)
[187] 3944 (002143339444) | 거세 | 190711 | 002116346769 | 한우조합 (도축)

@ 2022년 2월 7일 월요일
[188] 2432 (002079024328) | 암소 | 120921 | 002058493537 | 부경공판장 (도축)
[189] 4563 (002308445634) | 암소 | 140409 | 002052005605 | 부경공판장 (도축)
[190] 9355 (002091993559) | 암소 | 140508 | 002068979938 | 부경공판장 (도축)
[191] 4048 (002106340487) | 암소 | 160422 | 002068979938 | 부경공판장 (도축)
[192] 7520 (002128575204) | 암소 | 180611 | 002312079610 | 부경공판장 (도축)

@ 2022년 3월 17일 금요일
[193] 0241 (002138502419) | 거세 | 190421 | 002117130963 | 한우조합 (도축)
[194] 1417 (002138514170) | 거세 | 190517 | 002308445634 | 한우조합 (도축)
[195] 2307 (002138523079) | 거세 | 190611 | 002106406877 | 한우조합 (도축)
[196] 0935 (002144009350) | 거세 | 190806 | 002085467833 | 한우조합 (도축)

@ 2022년 6월 10일 금요일
[197] 4576 (002166845760) | 암소 | 210830 | 002138514188 | 울진시장 (경매)

@ 2022년 8월 3일 수요일
[198] 9770 (002310897702) | 암소 | 150313 | 002058499884 | 부경공판장 (도축)
[199] 2208 (002138522081) | 암소 | 190608 | 002079012921 | 부경공판장 (도축)
[200] 3964 (002143339645) | 암소 | 190715 | 002091060563 | 부경공판장 (도축)
[201] 7559 (002126375592) | 암소 | 180317 | 002079020052 | 부경공판장 (도축)
[202] 6967 (002135369674) | 암소 | 190125 | 002091993559 | 부경공판장 (도축)
[203] 7085 (002135370854) | 암소 | 190207 | 002101955230 | 부경공판장 (도축)
[204] 9729 (002137797290) | 암소 | 190314 | 002114550993 | 부경공판장 (도축)

@ 2022년 11월 1일 화요일
[205] 3988 (002148639882) | 거세 | 200314 | 002101954796 | 한우조합 (도축)
[206] 3989 (002148639899) | 거세 | 200315 | 002114550993 | 한우조합 (도축)
[207] 3990 (002148639903) | 거세 | 200315 | 002126382772 | 한우조합 (도축)
[208] 4283 (002148642838) | 거세 | 200320 | 002305050769 | 한우조합 (도축)
[209] 1096 (002150510969) | 거세 | 200410 | 002104439758 | 한우조합 (도축)
[210] 1677 (002150516777) | 거세 | 200426 | 002106340487 | 한우조합 (도축)
[211] 6297 (002152662972) | 거세 | 200526 | 002079024328 | 한우조합 (도축)
[212] 6544 (002152665448) | 거세 | 200601 | 002085464829 | 한우조합 (도축)
[213] 9594 (002133895949) | 암소 | 181231 | 002079024328 | 한우조합 (도축)
[214] 1418 (002138514188) | 암소 | 190517 | 002104439758 | 한우조합 (도축)

@ 2023년 1월 6일 금요일
[215] 5390 (002305053909) | 암소 | 130422 | 002052005605 | 김해공판장 (도축)
[216] 1500 (002095015009) | 암소 | 141115 | 002047731030 | 김해공판장 (도축)
[217] 5479 (002101954796) | 암소 | 151114 | 002079018049 | 김해공판장 (도축)
[218] 3524 (002104435248) | 암소 | 151117 | 002079020052 | 김해공판장 (도축)
[219] 3984 (002123339845) | 암소 | 180219 | 002305053909 | 김해공판장 (도축)
[220] 2255 (002131822554) | 암소 | 180802 | 002085467833 | 김해공판장 (도축)

@ 2023년 1월 16일 월요일
[221] 3458 (002157534581) | 거세 | 200821 | 002128587440 | 김해공판장 (긴급도축)

@ 2023년 4월 18일 화요일
[222] 0130 (002155201301) | 거세 | 200614 | 002313063548 | 한우조합 (도축) 
[223] 0579 (002155205799) | 거세 | 200707 | 002116346769 | 한우조합 (도축)
[224] 1473 (002155214734) | 거세 | 200727 | 002091060555 | 한우조합 (도축)
[225] 1712 (002155217120) | 거세 | 200809 | 002125883003 | 한우조합 (도축)
[226] 0700 (002155207001) | 거세 | 200811 | 002126375592 | 한우조합 (도축)
[227] 3155 (002157531554) | 거세 | 200816 | 002126377060 | 한우조합 (도축)
[228] 3600 (002157536001) | 거세 | 200830 | 002123339845 | 한우조합 (도축)

@ 2023년 7월 14일 금요일
[229] 1164 (002181811649) | 암소 | 220914 | 002138514188 | 울진시장 (경매)

@ 2023년 8월 23일 수요일
[230] 9672 (002161796728) | 거세 | 210403 | 002114550993 | 한우조합 (도축) 
[231] 9156 (002161791564) | 거세 | 210405 | 002104435248 | 한우조합 (도축)
[232] 0676 (002161806765) | 거세 | 210421 | 002095015009 | 한우조합 (도축)
[233] 3001 (002166830018) | 거세 | 210706 | 002310897702 | 한우조합 (도축)

@ 2024년 1월 1일 월요일
[234] 0309 (002165203098) | 거세 | 210526 | 002137799888 | 한우조합 (도축) 
[235] 0893 (002165208938) | 거세 | 210610 | 002313063548 | 한우조합 (도축)
[236] 3929 (002166839291) | 거세 | 210729 | 002079024328 | 한우조합 (도축)
[237] 4059 (002166840595) | 거세 | 210808 | 002305053909 | 한우조합 (도축)
[238] 8459 (002168884592) | 거세 | 210909 | 002138509390 | 한우조합 (도축)

@ 2024년 5월 13일 월요일
[239] 2040 (002131820405) | 암소 | 180718 | 002105154317 | 부경공판장 (도축)   
[240] 6700 (002135367007) | 암소 | 190104 | 002096768669 | 부경공판장 (도축)
[241] 6790 (002135367904) | 암소 | 190112 | 002104435248 | 부경공판장 (도축)
[242] 7349 (002135373498) | 암소 | 190216 | 002079012930 | 부경공판장 (도축)
[243] 1442 (002144014420) | 암소 | 190824 | 002104436886 | 부경공판장 (도축)

@ 2024년 6월 18일 화요일
[244] 8300 (002125883003) | 암소 | 180311 | 002095015009 | 부경공판장 (도축)  
[245] 9988 (002137799888) | 암소 | 190320 | 002079010653 | 부경공판장 (도축)
[246] 0033 (002138500331) | 암소 | 190417 | 002101954796 | 부경공판장 (도축)
[247] 4196 (002143341961) | 암소 | 190720 | 002116980655 | 부경공판장 (도축)

@ 2024년 8월 29일 목요일
[248] 4676 (002116346769) | 암소 | 170312 | 002308445642 | 부경공판장 (도축)
[249] 1032 (002138510322) | 암소 | 190508 | 002312079610 | 부경공판장 (도축)

@ 2024년 9월 6일 금요일
[250] 4488 (002145544881) | 암소 | 191110 | 002308445642 | 한우조합 (도축)
[251] 0069 (002155200690) | 암소 | 200612 | 002079010653 | 한우조합 (도축)
[252] 1422 (002155214228) | 암소 | 200724 | 002116980655 | 한우조합 (도축)
[253] 7864 (002170178648) | 거세 | 220109 | 002145543586 | 한우조합 (도축)
[254] 9089 (002172590894) | 거세 | 220223 | 002145544881 | 한우조합 (도축)
[255] 6912 (002177569120) | 거세 | 220509 | 002116980655 | 한우조합 (도축)
[256] 3050 (002177830500) | 거세 | 220605 | 002312079610 | 한우조합 (도축)

@ 2024년 10월 23일 수요일
[257] 3762 (002174237623) | 거세 | 220324 | 002135367007 | 한우조합 (도축)
[258] 3049 (002177830495) | 거세 | 220605 | 002117128085 | 한우조합 (도축)
[259] 3051 (002177830518) | 거세 | 220605 | 002137799888 | 한우조합 (도축)


@ 2024년 11월 11일 월요일
[260] 8909 (002161789091) | 암소 | 210327 | 002133895949 | 한우조합 (도축)
[261] 0071 (002165200714) | 암소 | 210516 | 002101954796 | 한우조합 (도축)
[262] 0894 (002165208946) | 암소 | 210610 | 002138500331 | 한우조합 (도축)
[263] 7914 (002170179147) | 암소 | 220123 | 002143341961 | 한우조합 (도축)


;; 편집: Emacs 27.1 (Ubuntu 18.04)
;; 마지막 갱신: 2024년 12월 19일
