@200101 | 00000 | 00000 | 00000 | 00310 | 00000 | 00000 | 00000 | 00300 || 00610
@200102 | 10679 | 00450 | 00000 | 00000 | 00000 | 00000 | 00000 | 00300 || 11429
@200103 | 00000 | 00000 | 00000 | 00000 | 00000 | 00000 | 00000 | 00300 || 00300
@200104 | 00000 | 00000 | 00000 | 00000 | 00490 | 00000 | 00160 | 00300 || 00950
@200105 | 00000 | 00000 | 00000 | 00000 | 00000 | 00000 | 00480 | 00300 || 00780
@200106 | 00000 | 00000 | 00000 | 00800 | 01080 | 00000 | 00160 | 00300 || 01340
@200107 | 00000 | 00000 | 00000 | 00000 | 00000 | 00000 | 00000 | 00300 || 00300
@200108 | 35000 | 00000 | 00000 | 00000 | 00000 | 00000 | 09000 | 12000 || 56000*
@200109 | 10589 | 00000 | 00000 | 00000 | 00000 | 00000 | 00000 | 00300 || 10889
@200110 | 40000 | 00000 | 00000 | 00000 | 00000 | 00000 | 19000 | 00300 || 59300*
@200111 | 00000 | 00000 | 00000 | 00000 | 00000 | 00000 | 00000 | 00800 || 00800
@200112 | 00000 | 00000 | 00000 | 00150 | 00400 | 00000 | 00000 | 04500 || 05050
@200113 | 00000 | 00000 | 00000 | 00000 | 00000 | 00000 | 00500 | 05300 || 05800
@200114 | 00000 | 00000 | 00000 | 00000 | 00000 | 00000 | 52000 | 00300 || 52300*
@200115 | 00000 | 00100 | 00000 | 00000 | 00225 | 00000 | 01111 | 00500 || 01936
@200116 | 10498 | 00000 | 00000 | 00750 | 00000 | 00000 | 00000 | 01000 || 12248
@200117 | 00000 | 00000 | 00000 | 00000 | 00256 | 00000 | 09000 | 03800 || 13056*
@200118 | 00000 | 00000 | 00000 | 00000 | 00000 | 00000 | 00000 | 00300 || 00300
@200119 | 00000 | 00000 | 00000 | 00000 | 00000 | 00000 | 00000 | 00300 || 00300
@200120 | 00000 | 00000 | 00000 | 00000 | 00000 | 00000 | 01200 | 00500 || 01700
@200121 | 00000 | 00000 | 00000 | 00000 | 00000 | 00000 | 00000 | 00300 || 00300
@200122 | 10408 | 00000 | 00000 | 00000 | 00264 | 00000 | 00500 | 00300 || 11472
@200123 | 00000 | 00000 | 00000 | 00000 | 00340 | 00000 | 00000 | 00300 || 00640
@200124 | 00000 | 00000 | 00000 | 00310 | 00000 | 00000 | 00000 | 00300 || 00610
@200125 | 00000 | 00000 | 00000 | 00000 | 00000 | 00000 | 00000 | 00300 || 00300
@200126 | 00000 | 00000 | 00000 | 00100 | 00240 | 00000 | 00000 | 00300 || 00640
@200127 | 00000 | 00000 | 00000 | 00000 | 00000 | 00000 | 00000 | 00800 || 00800
@200128 | 00000 | 00000 | 00000 | 00080 | 00240 | 00000 | 00000 | 00900 || 01220
@200129 | 92555 | 00900 | 00000 | 00000 | 00000 | 00000 | 03000 | 00000 || 96455
@200130 | 10318 | 00000 | 00000 | 00000 | 00320 | 00000 | 00000 | 00300 || 10938
@200131 | 00000 | 00000 | 00000 | 00310 | 00330 | 00000 | 00000 | 00300 || 00940
@------ |220047 | 01450 | 00000 | 02810 | 04185 | 00000 | 96111 | 36100 || =36,070,300(팔백구십만)

@200201 | 00000 | 00000 | 00000 | 00000 | 00000 | 00000 | 00200 | 00300 || 00500
@200202 | 00000 | 00000 | 00000 | 00000 | 00338 | 00000 | 00000 | 00300 || 00638
@200203 | 00000 | 00000 | 00000 | 00310 | 00000 | 00000 | 00220 | 00300 || 00840
@200204 | 00000 | 00000 | 00000 | 00000 | 00000 | 00000 | 00300 | 00300 || 00600
@200205 | 00000 | 00000 | 00000 | 00000 | 00000 | 00000 | 00330 | 00300 || 00630
@200206 | 00000 | 00000 | 00000 | 00000 | 00320 | 00000 | 00000 | 00300 || 00620
@200207 | 10228 | 00000 | 00000 | 00000 | 00000 | 00000 | 11200 | 00300 || 11500
@200208 | 00000 | 00000 | 00000 | 00800 | 00320 | 00000 | 00000 | 00300 || 01420
@200209 | 00000 | 00000 | 00000 | 00000 | 00000 | 00000 | 00190 | 00300 || 00490
@200210 | 00000 | 00000 | 00000 | 00500 | 00000 | 00000 | 00000 | 00300 || 00800
@200211 | 00000 | 00000 | 00000 | 00000 | 00000 | 00000 | 00000 | 00300 || 00300
@200212 | 00000 | 00000 | 00000 | 00000 | 00000 | 00000 | 00000 | 00300 || 00300
@200213 | 10138 | 00000 | 00000 | 00000 | 00280 | 00000 | 00500 | 00300 || 11218
@200214 | 00000 | 00000 | 00000 | 00000 | 00000 | 00000 | 00000 | 00300 || 00300
@200215 | 00000 | 00000 | 00000 | 00000 | 00000 | 00000 | 00000 | 00300 || 00300
@200216 | 00000 | 00000 | 00000 | 00000 | 00000 | 00000 | 00000 | 00500 || 00500
@200217 | 00000 | 00000 | 00000 | 00000 | 00000 | 00000 | 00160 | 00300 || 00460
@200218 | 00000 | 00000 | 00000 | 00310 | 00500 | 00000 | 00200 | 00300 || 01310
@200219 | 00000 | 00000 | 00000 | 00000 | 00320 | 00000 | 00000 | 00300 || 00620
@200220 | 10047 | 00000 | 00000 | 00000 | 00000 | 00000 | 00000 | 00300 || 10347
@200221 | 00000 | 00000 | 00000 | 00000 | 00184 | 00000 | 00160 | 00300 || 00644
@200222 | 00000 | 00000 | 00000 | 00000 | 00000 | 00000 | 00000 | 00300 || 00300
@200223 | 00000 | 00000 | 00000 | 00000 | 00000 | 00000 | 00140 | 00300 || 00440
@200224 | 00000 | 00000 | 00000 | 00500 | 00280 | 00000 | 00350 | 00300 || 01430
@200225 | 00000 | 00700 | 00000 | 00000 | 00000 | 00000 | 00100 | 00300 || 01100
@200226 | 00000 | 00000 | 00000 | 00000 | 00520 | 00000 | 00100 | 00300 || 00920
@200227 | 09774 | 00000 | 00000 | 00000 | 00000 | 00000 | 00000 | 00300 || 10074
@200228 | 00000 | 00000 | 00000 | 00000 | 00000 | 00000 | 00000 | 00300 || 00300
@200229 | 05000 | 01300 | 00000 | 00000 | 00000 | 00000 | 00000 | 00300 || 06600
@------ | 45187 | 02000 | 00000 | 02420 | 03062 | 00000 | 14150 | 08900 || =7,571,900

@200301 | 00000 | 00000 | 00000 | 00000 | 00000 | 00000 | 00000 | 00300 || 00300
@200302 | 00000 | 00000 | 04000 | 00000 | 00000 | 00000 | 00000 | 00300 || 04300
@200303 | 00000 | 00000 | 00000 | 00000 | 00000 | 00000 | 00250 | 00300 || 00550
@200304 | 00000 | 02400 | 00000 | 00000 | 00000 | 00000 | 01500 | 00300 || 05200
@200305 | 19683 | 00000 | 00000 | 00000 | 00237 | 00000 | 01638 | 00300 || 21858
@200306 | 00000 | 00000 | 00000 | 00000 | 00000 | 00000 | 00000 | 00300 || 00300
@200307 | 00000 | 00000 | 00000 | 00000 | 00000 | 00000 | 00000 | 00300 || 00300
@200308 | 00000 | 00000 | 00000 | 00000 | 00064 | 00000 | 00000 | 00300 || 00364
@200309 | 00000 | 00000 | 00000 | 00000 | 00000 | 00000 | 00000 | 00300 || 00300
@200310 | 00000 | 00000 | 00000 | 00100 | 00000 | 00000 | 00200 | 00300 || 00600
@200311 | 00000 | 00000 | 00000 | 00000 | 00000 | 00000 | 00000 | 00300 || 00300
@200312 | 09682 | 00000 | 00000 | 00000 | 00000 | 00000 | 00000 | 00300 || 09982
@200313 | 00000 | 00000 | 00000 | 00000 | 00000 | 00000 | 00000 | 00300 || 00300
@200314 | 00000 | 00000 | 00000 | 00000 | 00000 | 00000 | 00140 | 00300 || 00440
@200315 | 00000 | 00000 | 00000 | 00000 | 00000 | 00000 | 00000 | 00300 || 00300
@200316 | 00000 | 00000 | 00000 | 00000 | 00381 | 00000 | 01002 | 01600 || 02983
@200317 | 00000 | 00000 | 00000 | 00000 | 00000 | 00000 | 00000 | 00300 || 00300
@200318 | 00000 | 00000 | 00000 | 00000 | 00000 | 00000 | 00000 | 00300 || 00300
@200319 | 00000 | 00000 | 00000 | 00000 | 00000 | 00000 | 00000 | 00300 || 00300
@200320 | 09954 | 00000 | 00000 | 00000 | 00000 | 00000 | 00140 | 00300 || 10394
@200321 | 00000 | 00000 | 00000 | 00000 | 00000 | 00000 | 00000 | 00300 || 00300
@200322 | 00000 | 00000 | 00000 | 00000 | 00000 | 00000 | 00000 | 00300 || 00300
@200323 | 00000 | 00000 | 00000 | 00000 | 00000 | 00000 | 00000 | 00300 || 00300
@200324 | 00000 | 00000 | 00000 | 00000 | 00000 | 00000 | 00000 | 00300 || 00300
@200325 | 00000 | 00000 | 00000 | 00000 | 00000 | 00000 | 00000 | 00300 || 00300
@200326 | 10044 | 00450 | 00000 | 00000 | 00000 | 00000 | 00000 | 00300 || 10794
@200327 | 00000 | 00000 | 00000 | 00570 | 00000 | 00000 | 00000 | 00300 || 00870
@200328 | 00000 | 00000 | 00000 | 00000 | 00000 | 00000 | 00000 | 00300 || 00300
@200329 | 00000 | 00000 | 00000 | 00000 | 00000 | 00000 | 00000 | 00300 || 00300
@200330 | 00000 | 00000 | 00000 | 00634 | 00000 | 00000 | 00000 | 00300 || 00934
@200331 | 00000 | 00000 | 03000 | 00000 | 00120 | 00000 | 00000 | 00300 || 03420
@------ | 49363 | 02850 | 07000 | 01304 | 00802 | 00000 | 04870 | 10600 || =7,678,900

@200401 | 00000 | 00000 | 00000 | 00000 | 00202 | 00000 | 00000 | 00300 || 00502
@200402 | 10044 | 00000 | 00000 | 00000 | 00000 | 00000 | 01000 | 00300 || 11344
@200403 | 00000 | 00000 | 00000 | 00000 | 00000 | 00000 | 00000 | 00300 || 00300
@200404 | 00000 | 00000 | 00000 | 00000 | 00000 | 00000 | 00000 | 00300 || 00300
@200405 | 00000 | 00000 | 00000 | 00000 | 00000 | 00000 | 00000 | 00300 || 00300
@200406 | 00000 | 00290 | 00000 | 04000 | 00000 | 00000 | 00000 | 00300 || 04590
@200407 | 00000 | 00000 | 00000 | 00000 | 00000 | 00000 | 00000 | 00300 || 00300
@200408 | 00000 | 00000 | 00000 | 00000 | 00000 | 00000 | 00410 | 00300 || 00710
@200409 | 10044 | 00000 | 00000 | 00000 | 00000 | 00000 | 00000 | 00300 || 10344
@200410 | 00000 | 01200 | 00000 | 00000 | 00000 | 00000 | 01638 | 10300 || 13138
@200411 | 00000 | 00000 | 00000 | 00000 | 00000 | 00000 | 00000 | 00300 || 00300
@200412 | 00000 | 00000 | 00000 | 00000 | 00000 | 00000 | 00000 | 00300 || 00300
@200413 | 00000 | 00000 | 00000 | 00200 | 00000 | 00000 | 00000 | 00300 || 00500
@200414 | 10044 | 00000 | 00000 | 00000 | 00208 | 00000 | 00000 | 00300 || 10552
@200415 | 00000 | 00000 | 00000 | 00000 | 00000 | 00000 | 00000 | 00300 || 00300
@200416 | 00000 | 00000 | 00000 | 00000 | 00000 | 00000 | 00000 | 00300 || 00300
@200417 | 00000 | 00000 | 00000 | 00000 | 00000 | 00000 | 01067 | 00300 || 01367
@200418 | 00000 | 00000 | 00000 | 00000 | 00000 | 00000 | 00000 | 00300 || 00300
@200419 | 00000 | 00000 | 00000 | 00000 | 00000 | 00000 | 00000 | 00300 || 00300
@200420 | 00000 | 00000 | 00000 | 00000 | 00000 | 00000 | 00290 | 00300 || 00590
@200421 | 00000 | 00000 | 00000 | 00000 | 00000 | 00000 | 00000 | 00300 || 00300
@200422 | 00000 | 00000 | 00650 | 00000 | 00000 | 00000 | 00000 | 00300 || 00950
@200423 | 00000 | 00000 | 00000 | 00000 | 00000 | 00000 | 00210 | 00300 || 00510
@200424 | 10134 | 00000 | 00000 | 00000 | 00000 | 00000 | 00000 | 00300 || 10434
@200425 | 00000 | 00000 | 00000 | 00000 | 00000 | 00000 | 00000 | 00300 || 00300
@200426 | 00000 | 00000 | 00000 | 00000 | 00000 | 00000 | 00000 | 00300 || 00300
@200427 | 00000 | 00000 | 00000 | 00000 | 00000 | 00000 | 00000 | 00300 || 00300
@200428 | 00000 | 00000 | 00000 | 00000 | 00000 | 00000 | 00000 | 00300 || 00300
@200429 | 10134 | 00000 | 00000 | 00000 | 00000 | 00000 | 00000 | 00300 || 10434
@200430 | 00000 | 00000 | 00000 | 00000 | 00000 | 00000 | 00000 | 00300 || 00300
@------ | 50400 | 01490 | 00650 | 04200 | 00410 | 00000 | 04615 | 19000 || =8,076,500

@200501 | 00000 | 00000 | 00000 | 00000 | 00000 | 00000 | 00000 | 00300 || 00300
@200502 | 00000 | 00000 | 00000 | 00000 | 00000 | 00000 | 00000 | 00300 || 00300
@200503 | 00000 | 00000 | 00000 | 00000 | 00000 | 00000 | 00000 | 00300 || 00300
@200504 | 00000 | 00000 | 00000 | 00000 | 00000 | 00000 | 00000 | 00300 || 00300
@200505 | 00000 | 00000 | 00000 | 00000 | 00000 | 00000 | 00000 | 00300 || 00300
@200506 | 00000 | 00000 | 00000 | 00000 | 00189 | 00000 | 00000 | 00300 || 00489
@200507 | 10225 | 00000 | 00000 | 00000 | 00000 | 00000 | 00000 | 00300 || 10525
@200508 | 00000 | 00000 | 00000 | 00000 | 00195 | 00000 | 01500 | 12211 || 13916
@200509 | 00000 | 00000 | 00000 | 00000 | 00000 | 00000 | 00000 | 00300 || 00300
@200510 | 00000 | 00000 | 00000 | 00000 | 00000 | 00000 | 00000 | 00300 || 00300
@200511 | 00000 | 00000 | 00000 | 00000 | 00000 | 00000 | 00000 | 00300 || 00300
@200512 | 00000 | 00000 | 00000 | 00000 | 00000 | 00000 | 00000 | 00300 || 00300
@200513 | 00000 | 00000 | 00000 | 00000 | 00000 | 00000 | 00000 | 00300 || 00300
@200514 | 10364 | 00000 | 00000 | 00000 | 00000 | 00000 | 00000 | 00300 || 10664
@200515 | 00000 | 00000 | 00000 | 00000 | 00000 | 00000 | 00000 | 00300 || 00300
@200516 | 00000 | 00000 | 00000 | 00000 | 00000 | 00000 | 04000 | 01000 || 05000
@200517 | 00000 | 00000 | 00000 | 00000 | 00000 | 00000 | 00000 | 00300 || 00300
@200518 | 00000 | 00000 | 00000 | 00000 | 00000 | 00000 | 00000 | 00300 || 00300
@200519 | 00000 | 00000 | 00000 | 00000 | 00165 | 00000 | 00410 | 00300 || 00865
@200520 | 00000 | 00000 | 00000 | 00000 | 00000 | 00000 | 00000 | 00300 || 00300
@200521 | 10572 | 00000 | 00000 | 00000 | 00000 | 00000 | 00000 | 00300 || 10872
@200522 | 00000 | 00000 | 00000 | 00000 | 00000 | 00000 | 00000 | 00300 || 00300
@200523 | 00000 | 00000 | 00000 | 00000 | 00000 | 00000 | 00000 | 00300 || 00300
@200524 | 00000 | 00000 | 00000 | 00000 | 00000 | 00000 | 00000 | 00300 || 00300
@200525 | 00000 | 00000 | 00000 | 00000 | 00000 | 00000 | 00000 | 00300 || 00300
@200526 | 00000 | 00000 | 00000 | 00000 | 00000 | 00000 | 00000 | 00300 || 00300
@200527 | 00000 | 00000 | 00000 | 00000 | 00000 | 00000 | 00000 | 00300 || 00300
@200528 | 10572 | 00000 | 00000 | 00000 | 00000 | 00000 | 00000 | 00300 || 10872
@200529 | 00000 | 00000 | 00000 | 00000 | 00144 | 00000 | 00532 | 00300 || 00976
@200530 | 00000 | 00000 | 00000 | 00000 | 00000 | 00000 | 00000 | 00300 || 00300
@200531 | 00000 | 01800 | 00000 | 00000 | 00144 | 00000 | 00000 | 00300 || 02244
@------ | 41733 | 01800 | 00000 | 00000 | 00837 | 00000 | 06442 | 21911 || =7,272,300

@200601 | 00000 | 00000 | 00000 | 00000 | 00000 | 00000 | 00000 | 00300 || 00300
@200602 | 00000 | 00000 | 00000 | 00000 | 00000 | 00000 | 00000 | 00300 || 00300
@200603 | 00000 | 00000 | 00000 | 00000 | 00000 | 00000 | 02000 | 00300 || 02300
@200604 | 10848 | 00000 | 00000 | 00000 | 00000 | 00000 | 00000 | 00300 || 11148
@200605 | 00000 | 00000 | 00000 | 00000 | 00000 | 00000 | 00500 | 00300 || 00800
@200606 | 00000 | 00000 | 00000 | 00000 | 00000 | 00000 | 00000 | 00300 || 00300
@200607 | 00000 | 00000 | 00000 | 00000 | 00000 | 00000 | 00000 | 00300 || 00300
@200608 | 00000 | 00000 | 00000 | 00000 | 00500 | 00000 | 00000 | 00300 || 00800
@200609 | 00000 | 00000 | 00000 | 04150 | 00087 | 00000 | 00000 | 00300 || 04537
@200610 | 00000 | 00000 | 00000 | 00000 | 00000 | 00000 | 00000 | 00300 || 00300
@200611 | 10848 | 00000 | 00000 | 00000 | 00000 | 00000 | 02000 | 01638 || 14486
@200612 | 00000 | 00000 | 00000 | 00000 | 00000 | 00000 | 00310 | 00300 || 00610
@200613 | 00000 | 00000 | 00000 | 00000 | 00000 | 00000 | 00000 | 00600 || 00600
@200614 | 00000 | 00000 | 00000 | 00000 | 00000 | 00000 | 00000 | 00300 || 00300
@200615 | 00000 | 00000 | 00000 | 00000 | 00000 | 00000 | 01067 | 00300 || 01367
@200616 | 00000 | 00000 | 00000 | 00000 | 00000 | 00000 | 00000 | 00300 || 00300
@200617 | 00000 | 00000 | 00000 | 00000 | 00000 | 00000 | 00000 | 00300 || 00300
@200618 | 11062 | 00000 | 00000 | 00000 | 00000 | 00000 | 00000 | 00300 || 11362
@200619 | 00000 | 00000 | 00000 | 00000 | 00141 | 00000 | 00240 | 00300 || 00681
@200620 | 00000 | 01200 | 00000 | 00000 | 00000 | 00000 | 00580 | 00300 || 02080
@200621 | 00000 | 00000 | 00000 | 00000 | 00000 | 00000 | 00330 | 00300 || 00630
@200622 | 00000 | 00000 | 00000 | 00000 | 00000 | 00000 | 00100 | 00300 || 00400
@200623 | 00000 | 00000 | 00000 | 00000 | 00000 | 00000 | 00000 | 00300 || 00300
@200624 | 00000 | 00000 | 00000 | 00000 | 00000 | 00000 | 00000 | 00300 || 00300
@200625 | 11274 | 00000 | 00000 | 00000 | 00156 | 00000 | 00412 | 00300 || 12142
@200626 | 00000 | 00000 | 00000 | 00000 | 00156 | 00000 | 00140 | 00300 || 00596
@200627 | 00000 | 00000 | 00000 | 00000 | 00000 | 00000 | 00000 | 00300 || 00300
@200628 | 00000 | 00000 | 00000 | 00000 | 00000 | 00000 | 00000 | 00300 || 00300
@200629 | 00000 | 00000 | 00000 | 04238 | 00141 | 00000 | 00000 | 00300 || 04679
@200630 | 00000 | 00000 | 00000 | 00000 | 00000 | 00000 | 00000 | 00300 || 00300
@------ | 44032 | 01200 | 00000 | 08388 | 01181 | 00000 | 07679 | 10638 || =7,311,800

@200701 | 00000 | 00000 | 00000 | 00000 | 00000 | 00000 | 00000 | 10300 || 10300
@200702 | 11366 | 00000 | 00000 | 00000 | 00000 | 00000 | 00000 | 00300 || 11666
@200703 | 00000 | 00000 | 00000 | 00000 | 00000 | 00000 | 00000 | 00300 || 00300
@200704 | 00000 | 04500 | 00000 | 00000 | 00000 | 00000 | 00750 | 00300 || 05050
@200705 | 00000 | 00000 | 00000 | 00000 | 00000 | 00000 | 00000 | 00300 || 00300
@200706 | 00000 | 00000 | 00000 | 00000 | 00000 | 00000 | 00000 | 00300 || 00300
@200707 | 00000 | 00000 | 00000 | 00000 | 00150 | 00000 | 00000 | 00300 || 00450
@200708 | 00000 | 00000 | 00000 | 00000 | 00000 | 00000 | 00000 | 00300 || 00300
@200709 | 11458 | 00000 | 00000 | 00000 | 00000 | 00000 | 00000 | 00300 || 00300
@200710 | 00000 | 00000 | 00000 | 00000 | 00000 | 00000 | 00100 | 00300 || 01300
@200711 | 00000 | 00000 | 00000 | 00000 | 00000 | 00000 | 00000 | 00450 || 00450
@200712 | 00000 | 00000 | 00000 | 00000 | 00000 | 00000 | 00000 | 00300 || 00300
@200713 | 00000 | 00000 | 00000 | 00296 | 00500 | 00000 | 00000 | 00300 || 01096
@200714 | 40000 | 00000 | 00000 | 00000 | 00000 | 00000 | 00500 | 01778 || 42278
@200715 | 00000 | 00000 | 00000 | 00570 | 00150 | 00000 | 00000 | 00300 || 00300
@200716 | 12834 | 00000 | 00000 | 00000 | 00000 | 00000 | 10000 | 00300 || 23134*
@200717 | 00000 | 00000 | 00000 | 00484 | 00000 | 00000 | 22000 | 00300 || 22784*
@200718 | 00000 | 00000 | 00000 | 00000 | 00000 | 00000 | 00000 | 00300 || 00300
@200719 | 00000 | 00000 | 00000 | 00000 | 00000 | 00000 | 00000 | 00300 || 00300
@200720 | 00000 | 00000 | 00000 | 00000 | 00000 | 00000 | 00000 | 00300 || 00300
@200721 | 00000 | 00000 | 00000 | 00000 | 00000 | 00000 | 00000 | 00300 || 00300
@200722 | 00000 | 00000 | 00000 | 00000 | 00000 | 00000 | 00000 | 00300 || 00300
@200723 | 10524 | 00000 | 00000 | 06109 | 00150 | 00000 | 00000 | 00400 || 17183
@200724 | 00000 | 00000 | 00000 | 00000 | 00000 | 00000 | 00000 | 00300 || 00300
@200725 | 00000 | 00000 | 00000 | 00000 | 00000 | 00000 | 10000 | 00300 || 10300
@200726 | 00000 | 00000 | 00000 | 00000 | 00000 | 00000 | 00000 | 00300 || 00300
@200727 | 00000 | 00000 | 00000 | 00000 | 00000 | 00000 | 00600 | 09000 || 01500
@200728 | 03136 | 00000 | 00000 | 00000 | 00300 | 00000 | 10000 | 00300 || 13736*
@200729 | 00000 | 00000 | 00000 | 00000 | 00000 | 00000 | 00000 | 00300 || 00300
@200730 | 12800 | 00000 | 00000 | 00000 | 00000 | 00000 | 15000 | 00300 || 28100*
@200731 | 00000 | 00000 | 02000 | 00000 | 00000 | 00000 | 00000 | 00300 || 02300
@------ |102118 | 04500 | 02000 | 07459 | 01250 | 00000 | 68950 | 29728 || =21,600,500(오백오십만)

@200801 | 00000 | 00000 | 00000 | 00000 | 00000 | 00000 | 00000 | 00300 || 00300
@200802 | 00000 | 00000 | 00000 | 00000 | 00000 | 00000 | 00000 | 00300 || 00300
@200803 | 01834 | 00000 | 00000 | 00000 | 00156 | 00000 | 02000 | 00300 || 04290
@200804 | 00000 | 00000 | 00000 | 00000 | 00000 | 00000 | 00000 | 00300 || 00300
@200805 | 00000 | 00000 | 00000 | 00000 | 00000 | 00000 | 00000 | 00300 || 00300
@200806 | 00000 | 00000 | 00000 | 00000 | 00000 | 00000 | 00000 | 00300 || 00300
@200807 | 12772 | 00000 | 00000 | 00000 | 00000 | 00000 | 00380 | 00300 || 13452
@200808 | 00000 | 00000 | 00000 | 00000 | 00000 | 00000 | 00000 | 00300 || 00300
@200809 | 00000 | 00000 | 00000 | 00000 | 00000 | 00000 | 00000 | 00300 || 00300
@200810 | 01834 | 00000 | 00000 | 00000 | 00156 | 00000 | 00000 | 00300 || 02290
@200811 | 00000 | 00000 | 00000 | 00000 | 00000 | 00000 | 00000 | 00300 || 00300
@200812 | 01559 | 01200 | 00000 | 00000 | 00000 | 00000 | 00000 | 00300 || 03059
@200813 | 13414 | 00000 | 00000 | 00000 | 00000 | 00000 | 00000 | 00300 || 13714
@200814 | 00000 | 00000 | 00000 | 00000 | 00000 | 00000 | 00000 | 00300 || 00300
@200815 | 00000 | 02751 | 00000 | 00890 | 00500 | 00000 | 00000 | 00300 || 04441 
@200816 | 00000 | 00000 | 00000 | 00890 | 00000 | 00000 | 00000 | 00300 || 01190
@200817 | 00000 | 00000 | 00000 | 00000 | 00000 | 00000 | 00000 | 00300 || 00300
@200818 | 00000 | 00000 | 00000 | 00000 | 00000 | 00000 | 00000 | 00300 || 00300
@200819 | 00000 | 00000 | 00000 | 00000 | 00350 | 00000 | 00000 | 00300 || 00650
@200820 | 13414 | 00000 | 00000 | 00000 | 00000 | 00000 | 00000 | 00300 || 13714
@200821 | 00000 | 00000 | 00000 | 00000 | 00000 | 00000 | 36000 | 00300 || 36300*
@200822 | 00000 | 01800 | 00000 | 00000 | 00000 | 00000 | 00000 | 00300 || 02100
@200823 | 00000 | 00000 | 00000 | 00000 | 00000 | 00000 | 00000 | 00300 || 00300
@200824 | 00000 | 00000 | 00000 | 00000 | 00000 | 00000 | 04400 | 12000 || 16400
@200825 | 02706 | 00000 | 00000 | 00000 | 00160 | 00000 | 04300 | 00300 || 07466
@200826 | 06400 | 00000 | 00000 | 00000 | 00000 | 00000 | 00150 | 00300 || 06850
@200827 | 14314 | 01200 | 00000 | 00000 | 00000 | 00000 | 09000 | 00300 || 24814*
@200828 | 02710 | 01200 | 00000 | 00000 | 00000 | 00000 | 01300 | 00300 || 05510
@200829 | 00000 | 00000 | 00000 | 00400 | 00000 | 00000 | 09900 | 00300 || 01690
@200830 | 00000 | 00000 | 00000 | 00000 | 00000 | 00000 | 00000 | 00300 || 00300
@200831 | 00000 | 00000 | 00000 | 00300 | 00900 | 00000 | 00000 | 00300 || 01500
@------ | 70957 | 08151 | 00000 | 02480 | 02222 | 00000 | 67430 | 21000 || =17,224,000(사백오십만)

@200901 | 00000 | 01000 | 00000 | 00330 | 00156 | 00000 | 00140 | 00300 || 01926
@200902 | 00000 | 00800 | 00000 | 00000 | 00000 | 02500 | 00000 | 00300 || 03600
@200903 | 15577 | 00000 | 00000 | 00000 | 00190 | 02860 | 00000 | 00300 || 18927
@200904 | 00000 | 00000 | 00000 | 00000 | 00000 | 02860 | 00000 | 00300 || 03160
@200905 | 00000 | 00000 | 00000 | 00000 | 00156 | 00000 | 00000 | 00300 || 00456
@200906 | 00000 | 00000 | 00000 | 00000 | 00000 | 00000 | 00000 | 00300 || 00300
@200907 | 00000 | 00000 | 00000 | 00000 | 00000 | 00000 | 00390 | 00300 || 00690
@200908 | 05004 | 01400 | 00000 | 00000 | 00500 | 00000 | 00000 | 00300 || 07204
@200909 | 00000 | 00000 | 00000 | 00400 | 00000 | 00000 | 00000 | 00300 || 00700
@200910 | 12930 | 00000 | 00000 | 00000 | 00000 | 00000 | 00500 | 00300 || 13738
@200911 | 00000 | 00000 | 00000 | 00000 | 00000 | 00000 | 00000 | 00300 || 00300
@200912 | 00000 | 01200 | 00000 | 00000 | 00000 | 00000 | 00000 | 00300 || 01500
@200913 | 00000 | 00000 | 00000 | 00000 | 00156 | 00000 | 00000 | 00300 || 00456
@200914 | 04567 | 01200 | 00000 | 00000 | 00000 | 00000 | 01000 | 00300 || 07067
@200915 | 00000 | 00000 | 00000 | 00000 | 00000 | 00000 | 00700 | 00300 || 01000
@200916 | 00000 | 00000 | 00000 | 00000 | 00000 | 00000 | 00000 | 00300 || 00300
@200917 | 11977 | 00000 | 00000 | 03500 | 00000 | 00000 | 00000 | 00300 || 15777
@200918 | 05961 | 00000 | 00000 | 00000 | 00000 | 00000 | 02000 | 00300 || 08261
@200919 | 00000 | 00000 | 00000 | 00000 | 00000 | 00000 | 00000 | 00300 || 00300
@200920 | 00000 | 00000 | 00000 | 00000 | 00156 | 00000 | 00000 | 00300 || 00456
@200921 | 00000 | 00000 | 00000 | 00000 | 00000 | 00000 | 00000 | 00300 || 00300
@200922 | 12618 | 01200 | 00000 | 00000 | 00000 | 00000 | 00000 | 00560 || 14378
@200923 | 00000 | 00000 | 00000 | 00000 | 00000 | 00000 | 00000 | 00300 || 00300
@200924 | 00000 | 00000 | 00000 | 00000 | 00000 | 00000 | 00000 | 00300 || 00300
@200925 | 01278 | 01900 | 00000 | 00000 | 00000 | 00000 | 03000 | 16000 || 22178*
@200926 | 00000 | 00000 | 00000 | 00000 | 00000 | 00000 | 00000 | 00300 || 00300
@200927 | 00000 | 00000 | 00000 | 00000 | 00000 | 00000 | 00000 | 00300 || 00300
@200928 | 04585 | 00000 | 00000 | 00000 | 00156 | 00000 | 00000 | 00300 || 05041
@200929 | 00000 | 00000 | 00000 | 00000 | 00350 | 00000 | 00000 | 00300 || 00650
@200930 | 14379 | 00000 | 00000 | 00300 | 00000 | 00000 | 00000 | 00600 || 15279
@------ | 88876 | 08700 | 00000 | 04530 | 01820 | 08220 | 07730 | 25260 || =14,513,600(삼십만)

@201001 | 00000 | 00000 | 00000 | 00320 | 00000 | 00000 | 00000 | 00300 || 00620
@201002 | 00000 | 00000 | 00000 | 00000 | 00000 | 00000 | 00000 | 00300 || 00300
@201003 | 00000 | 00000 | 00000 | 00000 | 00330 | 00000 | 00000 | 00300 || 00630
@201004 | 00000 | 00000 | 00000 | 00300 | 00210 | 00000 | 00000 | 00300 || 00810
@201005 | 04617 | 00000 | 00000 | 00000 | 00000 | 00000 | 00000 | 00300 || 04917
@201006 | 00361 | 00000 | 00000 | 00000 | 00000 | 00000 | 08000 | 00300 || 08661*
@201007 | 01834 | 00000 | 00000 | 00000 | 00000 | 00000 | 00000 | 00300 || 02134
@201008 | 19540 | 00000 | 00000 | 00000 | 00000 | 00000 | 00000 | 00300 || 19840
@201009 | 00000 | 01400 | 00000 | 03500 | 00300 | 00000 | 00000 | 00300 || 05500
@201010 | 00000 | 00000 | 00000 | 00000 | 00000 | 00000 | 00000 | 00300 || 00300
@201011 | 00000 | 00000 | 00000 | 00000 | 00300 | 00000 | 00000 | 00300 || 00600
@201012 | 00000 | 00000 | 00000 | 00000 | 00000 | 00000 | 00000 | 00300 || 00300
@201013 | 00000 | 00000 | 00000 | 00000 | 00000 | 00000 | 00000 | 00300 || 00300
@201014 | 00000 | 00000 | 00000 | 01400 | 00300 | 00000 | 00000 | 00300 || 02000
@201015 | 12587 | 01000 | 00000 | 00000 | 00500 | 00000 | 00000 | 00300 || 14387
@201016 | 00000 | 00000 | 00000 | 00000 | 00300 | 00000 | 00000 | 00300 || 00600
@201017 | 00000 | 00000 | 00000 | 00000 | 00300 | 00000 | 00000 | 00300 || 00600
@201018 | 00000 | 00000 | 00000 | 00000 | 00000 | 00000 | 00000 | 00300 || 00300
@201019 | 07774 | 00000 | 00000 | 00000 | 00000 | 00000 | 00000 | 00300 || 08074
@201020 | 00000 | 00000 | 00000 | 00000 | 00300 | 00000 | 00000 | 00300 || 00600
@201021 | 00000 | 00000 | 00000 | 01400 | 00100 | 00000 | 00000 | 00300 || 01800
@201022 | 08840 | 00800 | 00000 | 00000 | 00300 | 00000 | 00000 | 00300 || 10240
@201023 | 11068 | 00000 | 00000 | 00000 | 00000 | 00000 | 00000 | 00300 || 11368
@201024 | 00000 | 00000 | 00000 | 00000 | 00000 | 00000 | 00000 | 00300 || 00300
@201025 | 00000 | 00000 | 00000 | 00000 | 00000 | 00000 | 00000 | 00500 || 00500
@201026 | 00000 | 00000 | 00000 | 00000 | 00000 | 00000 | 00000 | 00800 || 00800
@201027 | 05963 | 00000 | 00000 | 00000 | 00000 | 00000 | 00000 | 00300 || 06263
@201028 | 00000 | 00000 | 00000 | 01100 | 00000 | 00000 | 00100 | 00300 || 01500
@201029 | 15053 | 00000 | 00000 | 07320 | 00300 | 00000 | 00000 | 00300 || 22973
@201030 | 00000 | 00000 | 00000 | 00100 | 00156 | 00000 | 00000 | 01709 || 01965
@201031 | 00000 | 00000 | 00000 | 00000 | 00000 | 00000 | 00000 | 00300 || 00300
@------ | 87637 | 03200 | 00000 | 15440 | 03696 | 00000 | 08100 | 11409 || =12,948,200(팔십만)

@201101 | 00000 | 00000 | 00000 | 00000 | 00000 | 00000 | 00000 | 00300 || 00000
@201102 | 00000 | 00000 | 00000 | 00000 | 00000 | 00000 | 00000 | 00300 || 00300
@201103 | 00000 | 00000 | 00000 | 00310 | 00300 | 00000 | 00000 | 00300 || 00910
@201104 | 00000 | 00000 | 00000 | 01050 | 00000 | 00000 | 00000 | 00300 || 01350
@201105 | 20281 | 00000 | 00000 | 00000 | 00526 | 00000 | 00000 | 00300 || 21107
@201106 | 00000 | 00000 | 00000 | 00000 | 00000 | 00000 | 00000 | 00300 || 00300
@201107 | 00000 | 00000 | 00000 | 00000 | 00000 | 00000 | 00000 | 00300 || 00300
@201108 | 00000 | 00000 | 00000 | 00000 | 00000 | 00000 | 00000 | 00300 || 00300
@201109 | 00000 | 00000 | 00000 | 04000 | 00000 | 00000 | 35000 | 11282 || 50282*
@201110 | 00000 | 00000 | 00000 | 01220 | 00000 | 00000 | 00000 | 00300 || 01520
@201111 | 00000 | 00000 | 00000 | 00000 | 00000 | 00000 | 00000 | 00300 || 00300
@201112 | 20007 | 00000 | 00000 | 17600 | 00000 | 00000 | 00000 | 00300 || 37907
@201113 | 00000 | 00600 | 00000 | 00000 | 00000 | 00000 | 00000 | 05000 || 05600
@201114 | 00000 | 00000 | 00000 | 00000 | 00000 | 00000 | 00000 | 00300 || 00300
@201115 | 00000 | 00000 | 00000 | 00000 | 00000 | 00000 | 00000 | 00300 || 00300
@201116 | 00000 | 00000 | 00000 | 00000 | 00000 | 00000 | 00000 | 00300 || 00300
@201117 | 00000 | 00000 | 00000 | 00000 | 00000 | 00000 | 00000 | 00300 || 00300
@201118 | 00000 | 00000 | 00000 | 00000 | 00000 | 00000 | 00000 | 00300 || 00300
@201119 | 16889 | 00000 | 00000 | 00000 | 00000 | 00000 | 00000 | 00300 || 17189
@201120 | 00000 | 00000 | 00000 | 00000 | 00000 | 00000 | 00000 | 00300 || 00300
@201121 | 00000 | 00000 | 00000 | 00000 | 00000 | 00000 | 00000 | 00300 || 00300
@201122 | 00000 | 00000 | 00000 | 00000 | 00000 | 00000 | 00000 | 00300 || 00300
@201123 | 02751 | 00000 | 00000 | 00000 | 00000 | 00000 | 00000 | 00300 || 03051
@201124 | 00000 | 00000 | 00000 | 00000 | 00000 | 00000 | 01150 | 00300 || 01450
@201125 | 00000 | 00000 | 00000 | 00000 | 00330 | 00000 | 01200 | 00300 || 01830
@201126 | 19174 | 00000 | 00000 | 00000 | 00000 | 00000 | 05600 | 00300 || 25074
@201127 | 00000 | 00000 | 00000 | 01350 | 00000 | 00000 | 00140 | 00300 || 01790
@201128 | 00000 | 00000 | 00000 | 00000 | 00000 | 00000 | 00000 | 00300 || 00300
@201129 | 00000 | 00000 | 00000 | 00000 | 00000 | 00000 | 00000 | 00300 || 00300
@201130 | 00000 | 00000 | 00000 | 00000 | 00000 | 00000 | 00000 | 00300 || 00300
@------ | 79102 | 00600 | 00000 | 25530 | 01156 | 00000 | 43090 | 24682 || =17,416,000(삼백만)

@201201 | 00000 | 00000 | 00000 | 00000 | 00000 | 00000 | 00000 | 00300 || 00300
@201202 | 00000 | 00000 | 00000 | 00000 | 00000 | 00000 | 00000 | 00300 || 00300
@201203 | 18835 | 00000 | 00000 | 00000 | 00000 | 00000 | 00000 | 00300 || 19135
@201204 | 00000 | 00000 | 00000 | 00000 | 00290 | 00000 | 00000 | 00300 || 00590
@201205 | 00000 | 00000 | 00000 | 00000 | 00000 | 00000 | 00140 | 00300 || 00440
@201206 | 00000 | 00000 | 00000 | 00000 | 00400 | 00000 | 00000 | 00300 || 00700
@201207 | 00000 | 00000 | 00000 | 00310 | 00000 | 00000 | 00000 | 00300 || 00610
@201208 | 00000 | 00000 | 00000 | 00000 | 00000 | 00000 | 00000 | 00300 || 00300
@201209 | 00000 | 00000 | 00000 | 00000 | 00000 | 00000 | 00000 | 00300 || 00300
@201210 | 18377 | 00000 | 00000 | 00000 | 00000 | 00000 | 00000 | 00300 || 18677
@201211 | 00000 | 00500 | 00000 | 00700 | 00000 | 00000 | 01567 | 00300 || 03067
@201212 | 00000 | 00000 | 00000 | 00000 | 00000 | 00000 | 00000 | 00300 || 00300
@201213 | 00000 | 00000 | 00000 | 00000 | 00000 | 00000 | 00000 | 00300 || 00300
@201214 | 00000 | 00000 | 00000 | 00000 | 00000 | 00000 | 00000 | 00300 || 00300
@201215 | 00000 | 00000 | 00000 | 00000 | 00000 | 00000 | 00196 | 10800 || 10996
@201216 | 00000 | 00000 | 00000 | 00000 | 00000 | 00000 | 00000 | 00300 || 00300
@201217 | 00000 | 00000 | 00000 | 04650 | 00380 | 00000 | 00000 | 00300 || 04950
@201218 | 15349 | 00000 | 00000 | 00000 | 00000 | 00000 | 00000 | 00300 || 15649
@201219 | 02293 | 00000 | 00000 | 01018 | 00000 | 00000 | 00000 | 00300 || 03611
@201220 | 00000 | 00000 | 00000 | 00000 | 00000 | 00000 | 00000 | 00300 || 00300
@201221 | 00000 | 00000 | 00000 | 00000 | 00000 | 00000 | 00000 | 00300 || 00300
@201222 | 00000 | 00000 | 00000 | 00000 | 00130 | 00000 | 00000 | 00000 || 00130
@201223 | 00000 | 00000 | 00000 | 00000 | 00000 | 00000 | 00000 | 00000 || 00000
@201224 | 17917 | 00000 | 00000 | 00000 | 00000 | 00000 | 00000 | 00000 || 17917
@201225 | 00000 | 00000 | 00000 | 00000 | 00000 | 00000 | 00000 | 00300 || 00300
@201226 | 00000 | 00000 | 00000 | 00000 | 00000 | 00000 | 00000 | 00000 || 00000
@201227 | 00000 | 00000 | 00000 | 00000 | 00000 | 00000 | 00000 | 00300 || 00300
@201228 | 00000 | 00000 | 00000 | 00000 | 00000 | 00000 | 00000 | 00300 || 00300
@201229 | 00000 | 00000 | 00000 | 00000 | 00000 | 00000 | 01000 | 00000 || 01000
@201230 | 18157 | 00000 | 00000 | 00000 | 00000 | 00000 | 00000 | 00000 || 00000
@201231 | 00000 | 00000 | 00000 | 00000 | 00000 | 00185 | 00000 | 00300 || 00485
@------ | 90928 | 00500 | 00000 | 06678 | 01200 | 00185 | 02903 | 18000 || =12,039,400
